/* XPM */
static const char *atom_20x20[]={
"20 20 143 2",
"Qt c None",
"#7 c #054581",
"#8 c #0c4b87",
"#H c #3383c8",
"ai c #456381",
"#U c #4e9eda",
"#9 c #5f707d",
"#F c #62b2e5",
"ae c #630500",
"ad c #640500",
"#4 c #640601",
"ac c #670500",
"#R c #690f0a",
"ab c #6a0a06",
"#3 c #6b0500",
"aj c #74899d",
"#Q c #760500",
"#2 c #780500",
"af c #792a26",
"#W c #829eb2",
"#V c #83c9f0",
"#1 c #8b0d06",
"#C c #923121",
"#r c #97afc2",
"ah c #99aaba",
"#T c #99adbe",
"#I c #9bb3cb",
"#P c #9e2619",
"aa c #a26964",
"#D c #ab7875",
"#0 c #b04c36",
"#G c #b0ebfd",
".Y c #b74c45",
"#s c #b8ad9d",
"#J c #bc615c",
"#5 c #c19c9a",
"#u c #c50702",
"#6 c #c8d0d6",
"#K c #ce3d2b",
"ag c #ceb1b0",
".X c #cf0904",
"#X c #d2b798",
"#O c #d47c5b",
"#Z c #d68f6a",
"al c #d6bebd",
"ak c #d7c0bf",
"#a c #dc6046",
"#B c #dc946e",
"#q c #dce7f1",
".K c #dd0903",
".x c #dd2621",
".L c #dd907e",
"#E c #e1e9f1",
"am c #e2d2d1",
"a. c #e4c7a7",
"#p c #e6b48f",
"#v c #e9110c",
"## c #ea201c",
"#e c #ea917a",
"#S c #eadede",
"#L c #ed7c5d",
"#f c #f00d09",
".W c #f22523",
"#m c #f2715a",
"#t c #f4c6a8",
".2 c #f59997",
"#w c #f82421",
"#. c #f8403d",
"#b c #f8c291",
".n c #f8d5d5",
".J c #f92927",
".m c #f9302c",
"#x c #f93331",
"#N c #f9c392",
"#Y c #fac895",
"#l c #fb4943",
"#z c #fb9877",
"#n c #fbba8c",
".y c #fbca9b",
".w c #fc1b18",
".O c #fcb6b4",
"#M c #fcbd8e",
"#k c #fd5b59",
"#y c #fd5e50",
".3 c #fe1c19",
"#g c #fe2f2c",
".9 c #fe6663",
".e c #fe7c79",
"#A c #fec896",
"#o c #fece9a",
".P c #ff2320",
".l c #ff2624",
".B c #ff2825",
".c c #ff2c29",
".d c #ff3734",
".b c #ff3835",
".p c #ff4846",
".v c #ff4c49",
".g c #ff4d4a",
"#h c #ff4e4b",
".4 c #ff514e",
".k c #ff5452",
".V c #ff5552",
".I c #ff5c5a",
".a c #ff6260",
"#i c #ff6361",
"#j c #ff6664",
".C c #ff6866",
".Q c #ff6966",
".h c #ff7e7c",
".5 c #ff7e7d",
".j c #ff817e",
".u c #ff8885",
".U c #ff8a88",
".f c #ff8d8c",
".8 c #ff8f8c",
".i c #ff9290",
".o c #ff9593",
".q c #ff9794",
".H c #ff9996",
".6 c #ffa09d",
".7 c #ffa19f",
".R c #ffa8a6",
".D c #ffb3b1",
".# c #ffbab9",
".T c #ffbcb9",
".t c #ffbdbb",
".r c #ffcdca",
".z c #ffcf9b",
".0 c #ffcf9c",
".G c #ffd0ce",
".S c #ffd2cf",
".s c #ffd6d3",
".1 c #ffdfbd",
".Z c #ffe3c6",
".N c #ffe6cb",
".E c #ffe6e4",
"#c c #ffe7cd",
"a# c #ffe7ce",
".M c #ffe8cf",
"#d c #ffe9d3",
".F c #ffe9e8",
".A c #ffebd5",
"QtQtQtQtQtQtQtQtQtQtQtQtQtQtQtQtQtQtQtQt",
"QtQtQtQtQtQtQtQtQtQtQtQtQtQtQtQtQtQtQtQt",
"QtQtQtQtQtQtQtQtQtQtQtQtQtQtQtQtQtQtQtQt",
"QtQtQtQtQtQtQt.#.a.b.c.d.eQtQtQtQtQtQtQt",
"QtQtQtQtQtQt.f.g.h.i.j.k.l.m.nQtQtQtQtQt",
"QtQtQtQtQt.o.p.q.r.s.t.u.v.w.x.y.z.z.z.A",
"QtQtQtQtQt.B.C.D.E.F.G.H.I.J.K.LQt.M.z.N",
"QtQtQtQt.O.P.Q.R.S.S.T.U.V.W.X.Y.Z.0.1Qt",
"QtQtQtQt.2.3.4.5.6.7.8.9#.###a#b.0#cQtQt",
"QtQtQt#d#e#f#g#h#i#j#k#l#m#n#o#pQtQtQtQt",
"Qt#q#r#s#t#u#v#w#x#y#z#A.z#B#C#DQtQtQtQt",
"#E#F#G#H#I#J#K#L#M.z#N#O#P#Q#R#SQtQtQtQt",
"#T#U#V#W#X.0.z#Y#Z#0#1#2#3#4#5QtQtQtQtQt",
"#6#7#8#9a.a#QtaaabacadaeafagQtQtQtQtQtQt",
"QtahaiajQtQtQtQtQtakalamQtQtQtQtQtQtQtQt",
"QtQtQtQtQtQtQtQtQtQtQtQtQtQtQtQtQtQtQtQt",
"QtQtQtQtQtQtQtQtQtQtQtQtQtQtQtQtQtQtQtQt",
"QtQtQtQtQtQtQtQtQtQtQtQtQtQtQtQtQtQtQtQt",
"QtQtQtQtQtQtQtQtQtQtQtQtQtQtQtQtQtQtQtQt",
"QtQtQtQtQtQtQtQtQtQtQtQtQtQtQtQtQtQtQtQt"};
