/* XPM */
static const char *pickcell_20x20[]={
"20 20 238 2",
"Qt c None",
"a4 c #111111",
"bD c #1a1616",
"#x c #1b1b1a",
"bv c #242424",
".u c #363064",
".v c #373164",
"a9 c #393365",
"#T c #393366",
"bh c #3a3467",
"aR c #3b2c2b",
"#Q c #3b3063",
"aQ c #3b3b3b",
"#f c #3c3668",
"#K c #3e3d3c",
"a1 c #423c38",
".t c #433664",
"aA c #433838",
"ai c #43413f",
"bf c #464646",
"bm c #483838",
"ax c #48423c",
".2 c #4a4270",
".w c #4b3863",
"bF c #4c4c4c",
".3 c #4d2141",
"bw c #4d4c4d",
"#q c #534970",
"#I c #535353",
"bp c #57517d",
"bi c #584d71",
"#Y c #58524c",
"#D c #58527e",
"bH c #5a595a",
"by c #5a5a5a",
"a8 c #5d5882",
"aX c #5f4867",
"#t c #5f577e",
"bO c #636363",
"#L c #6d6358",
"#y c #6d6661",
"#w c #6e6b6a",
"ag c #6e6d6e",
"aB c #701716",
"aj c #754a3b",
"bt c #761514",
"#2 c #776859",
"aW c #790808",
"#r c #7b7699",
"bM c #7e6e6e",
"#s c #7e7a9b",
".1 c #83525d",
"#E c #847992",
"aO c #8b8a8b",
"bL c #8d0904",
".N c #920601",
"bc c #937b66",
"bE c #939293",
"aV c #940500",
"bG c #949494",
"b. c #95818d",
"bN c #969596",
"bq c #97243c",
".k c #9892ac",
".S c #99342f",
".O c #994647",
".F c #997885",
".R c #9a0601",
"bg c #9a96b1",
"bx c #9b9a9b",
"#C c #9d868c",
"aU c #a0140f",
".A c #a10803",
"aD c #a23d39",
"#e c #a29fb7",
".M c #a50702",
"bd c #a6a6a6",
"aC c #a80d09",
"#j c #a8a5a4",
".Q c #aa0702",
"#U c #ac9da7",
".j c #aca9bf",
"bQ c #ad6461",
"aN c #ad9782",
".E c #ae0a06",
".G c #b1a5b2",
"bK c #b30c08",
"a5 c #b3b2b3",
"bC c #b4120e",
"#1 c #b4b3b4",
"#J c #b4b4b4",
"be c #b6b6b6",
".L c #b94538",
"bu c #b9b9b9",
"aH c #ba0e0a",
".4 c #ba8685",
"an c #bc2c28",
"bP c #bd7f7d",
"bJ c #be0c08",
".i c #c2bfd0",
"#d c #c3c1d1",
"aI c #c47462",
"af c #c6b6a5",
".P c #c76c6a",
"#R c #c78794",
".H c #c7b9bb",
"bI c #cf7471",
".s c #d01a17",
".o c #d02b27",
"#c c #d2b5a8",
".0 c #d39781",
"bj c #d4ae9a",
"aY c #d5baac",
"bR c #d8b6b5",
".h c #d8d6e1",
"bo c #d9d7e1",
"as c #db8a79",
"bz c #dc3d3d",
"#H c #dcd1cb",
"#Z c #dcdbdc",
"a7 c #ddc0c0",
"#5 c #de4748",
".I c #deccc4",
"aE c #e06a68",
"aP c #e1e1e1",
".B c #e22622",
".x c #e31a16",
"aS c #e3cbcb",
".z c #e4312e",
"#M c #e4caae",
"#z c #e4d3c1",
"#k c #e4dad5",
"#P c #e5bfa4",
"ar c #e62a27",
"a3 c #e6e5e6",
"#8 c #e79492",
"aG c #e93b38",
"ak c #e94441",
"aa c #e95b52",
"aT c #e9cdcc",
"#3 c #ebc8a6",
"aF c #ec312e",
".D c #ec3f3d",
"ay c #edeced",
"am c #f24b49",
"a# c #f24d4d",
"bl c #f26553",
"a6 c #f2e7e7",
".J c #f4deca",
".5 c #f5e5e0",
".y c #f65350",
".c c #f6cbcb",
".l c #f74340",
".C c #f85654",
"bB c #f86361",
"ao c #f88280",
".g c #f8c6c5",
"bn c #f8f7f8",
"b# c #f9d5b6",
"#7 c #fa403d",
".p c #fa5b59",
".b c #fa615f",
"#g c #faede8",
"#S c #fbd2d2",
".Z c #fbdbbe",
"a2 c #fbfafb",
".n c #fc7472",
"a. c #fc7978",
"a0 c #fcdaba",
"bA c #fd6b69",
".f c #fd6c69",
".r c #fd8986",
"ab c #fde4cd",
".T c #fdefea",
"ah c #fdfcfd",
".a c #fe7371",
".e c #fe7e7c",
"bk c #fe8e75",
"al c #fea2a0",
".# c #fed0d0",
"#4 c #fed1a9",
"#p c #fedbba",
"aw c #fee5cb",
".d c #fee5e5",
"#9 c #feeeef",
"az c #fefdfe",
"ap c #ff908e",
"#6 c #ff9592",
"br c #ff9a98",
"bs c #ff9c99",
"aq c #ffb1ae",
".q c #ffbab7",
".m c #ffc5c2",
"bb c #ffd7b2",
"ba c #ffd9b6",
"#O c #ffdab8",
"#B c #ffdbba",
"aZ c #ffddbe",
"#N c #ffdebe",
"#b c #ffdebf",
"#o c #ffdfbf",
"aM c #ffe0c1",
"aJ c #ffe1c2",
"aL c #ffe1c3",
"aK c #ffe2c3",
"#a c #ffe2c4",
"#A c #ffe2c5",
"#n c #ffe3c5",
".K c #ffe3c7",
".Y c #ffe5cc",
"at c #ffe6cd",
"av c #ffe6ce",
"au c #ffe7ce",
"## c #ffe7cf",
"#m c #ffe8d0",
".X c #ffead4",
"ac c #ffebd6",
"ae c #ffebd7",
"ad c #ffebd8",
"#. c #ffecd8",
"#l c #ffecd9",
"#V c #ffedda",
".W c #ffeedd",
"#W c #ffeedf",
"#X c #ffeee0",
".9 c #ffefe1",
"#F c #ffefe2",
".V c #ffefe5",
"#u c #fff0e9",
"#G c #fff1e9",
".U c #fff1eb",
".8 c #fff2ec",
"#v c #fff5f0",
".7 c #fff7f3",
"#h c #fff8f4",
".6 c #fff9f6",
"#i c #fffdfd",
"#0 c #fffeff",
"QtQtQtQtQtQtQtQtQtQtQtQt.#.a.b.cQtQtQtQt",
"QtQt.d.e.f.gQtQt.h.i.j.k.l.m.n.oQtQtQtQt",
"QtQt.p.q.r.s.t.u.u.u.v.w.x.y.z.AQtQtQtQt",
"QtQt.B.C.D.E.F.G.H.I.J.K.L.M.N.OQtQtQtQt",
"QtQt.P.Q.R.S.T.U.V.W.X.Y.Z.0.1.2QtQtQtQt",
"QtQtQt.3.4.5.6.7.8.9#.###a#b#c.u#dQtQtQt",
"QtQt#e#f#g#h#i#j#k.V#l#m#n#o#p#q#rQtQtQt",
"QtQt#s#t#u#v.6#w#x#y#z###A#b#B#C#fQtQtQt",
"QtQt#D#E#F#G.8#H#I#J#K#L#M#N#O#P#Q#R#SQt",
"QtQt#T#U#V#W#X#X#Y#Z#0#1#K#2#3#4#5#6#7#8",
"#9a.a#aaabacadaeafag#0#0ah#1aiajakalaman",
"aoapaqarasatauavawaxay#0#0#0az#JaAaBaCaD",
"aEaFaGaHaIaJaKaLaMaNaO#0#0#0#0#0aPaQaRaS",
"aTaUaVaWaXaY#b#baZa0a1a2#0#0#0a3a4a5QtQt",
"Qta6a7Qta8a9b.b#babbbcbd#0#0#0#0bebfQtQt",
"QtQtQtQtQtbgbhbibjbkblbmaza5bn#0#0bebfQt",
"QtQtQtQtQtQtbobpbqbrbsbtbubvbwbn#0bxbyQt",
"QtQtQtQtQtQtQtQtbzbAbBbCbDbxbEbFbGbHQtQt",
"QtQtQtQtQtQtQtQtbIbJbKbLbMQtQtbNbOQtQtQt",
"QtQtQtQtQtQtQtQtQtbPbQbRQtQtQtQtQtQtQtQt"};
