/* XPM */
static const char *resetproperty[]={
"18 14 7 1",
". c None",
"d c #303030",
"b c #808080",
"e c #c00000",
"c c #c3c3c3",
"a c #dcdcdc",
"# c #ffffff",
"..................",
".################.",
".#aaaaaaaaaaaaaab.",
".#accccccccccccdb.",
".#accceccccecccdb.",
".#accccecceccccdb.",
".#accccceecccccdb.",
".#accccceecccccdb.",
".#accccecceccccdb.",
".#accceccccecccdb.",
".#accccccccccccdb.",
".#adddddddddddddb.",
".#bbbbbbbbbbbbbbb.",
".................."};
