# Object 3D file generated by CamiTK
# number of vertices : 1425
# number of faces : 2854
v 184.382 160.556 256.664
v 180.188 158.689 258.55
v 183.374 161.925 256.412
v 181.744 164.216 256.806
v 186.43 161.043 256.686
v 188.034 160.217 257.854
v 187.541 163.823 256.656
v 183.252 163.42 256.279
v 182.468 164.197 256.508
v 184.721 164.119 256.194
v 183.083 165.657 256.74
v 184.57 165.577 256.491
v 186.69 165.351 256.726
v 182.249 166.239 257.364
v 185.111 166.132 256.781
v 188.889 164.483 257.357
v 184.378 166.896 257.395
v 183.173 166.996 257.678
v 183.014 167.355 258.276
v 178.909 158.796 259.103
v 181.727 157.92 258.525
v 180.647 156.829 259.546
v 178.106 160.324 259.067
v 180.644 162.232 257.388
v 193.983 164.072 259.235
v 191.136 164.23 258.039
v 178.491 165.749 259.252
v 177.226 163.725 259.816
v 189.612 164.58 257.65
v 192.563 165.667 258.384
v 177.889 166.221 260.18
v 191.128 165.031 258.036
v 193.182 166.356 258.689
v 193.975 165.522 258.999
v 178.52 166.959 260.238
v 189.548 166.73 258.195
v 191.662 167.188 258.59
v 192.482 166.395 258.465
v 178.862 167.417 260.599
v 193.809 167.795 259.526
v 194.445 166.937 259.487
v 192.565 169.542 261.391
v 193.557 168.224 259.746
v 180.376 155.099 261.843
v 183.619 154.007 263.393
v 178.246 155.871 262.635
v 177.614 156.654 262.311
v 179.954 156.046 260.601
v 184.488 154.892 261.527
v 178.729 156.448 261.025
v 186.551 154.995 262.455
v 177.765 157.702 260.735
v 175.999 158.573 262.508
v 176.926 159.27 260.541
v 176.038 159.096 261.845
v 175.89 159.683 261.7
v 175.158 162.211 262.722
v 197.571 163.464 261.873
v 197.719 164.301 261.578
v 195.71 167.354 260.381
v 177.475 167.888 263.164
v 196.086 169.166 261.546
v 193.233 169.473 261.276
v 194.416 169.919 262.103
v 191.496 169.803 262.629
v 190.738 169.77 263.034
v 182.536 153.668 266.293
v 179.165 154.838 264.279
v 184.536 153.852 264.496
v 176.226 157.045 265.409
v 175.058 159.338 263.609
v 175.019 158.791 264.451
v 174.679 159.187 264.809
v 175.227 160.653 262.453
v 201.898 162.873 263.525
v 203.212 163.572 263.283
v 203.709 163.014 264.34
v 201.519 164.189 262.421
v 202.326 164.209 262.541
v 203.031 164.952 262.415
v 205.356 164.166 264.511
v 204.56 164.949 263.122
v 205.222 164.399 264.065
v 199.856 166.605 261.973
v 202.195 165.716 262.172
v 203.727 165.687 262.463
v 206.14 165.153 264.725
v 176.385 168.259 265.317
v 176.318 167.241 264.123
v 202.152 166.486 262.189
v 204.26 167.07 262.82
v 205.644 166.271 263.741
v 203.655 166.422 262.438
v 204.828 166.943 263.115
v 202.847 167.204 262.42
v 203.571 167.135 262.568
v 205.466 167.06 263.77
v 176.798 168.349 264.735
v 176.846 167.856 263.87
v 204.102 167.657 263.026
v 208.084 171.712 271.509
v 196.137 169.826 262.153
v 188.939 169.58 264.223
v 190.574 169.999 264.598
v 198.861 169.671 262.805
v 198.136 169.75 262.606
v 197.906 170.226 262.964
v 197.939 170.763 263.747
v 195.705 170.991 263.875
v 186.712 154.444 267.186
v 179.568 154.519 268.588
v 173.498 159.845 267.92
v 173.363 160.678 267.918
v 197.013 160.237 272.193
v 205.69 164.141 265.091
v 206.44 165.707 264.942
v 177.07 169.053 266.768
v 184.351 153.853 268.483
v 181.65 153.901 268.257
v 187.794 155.032 267.687
v 191.668 157.707 270.392
v 205.512 162.068 269.032
v 208.497 164.803 268.841
v 208.65 166.169 268.297
v 208.687 165.4 268.739
v 208.683 167.509 268.468
v 182.92 153.84 268.885
v 182.712 154.12 270.084
v 186.304 154.62 270.474
v 173.438 158.54 269.46
v 175.117 156.596 272.345
v 173.699 157.586 271.072
v 187.868 156.271 272.618
v 172.504 158.866 270.948
v 172.482 164.288 270.998
v 173.072 163.351 269.402
v 207.28 162.898 270.479
v 208.706 164.313 270.549
v 174.613 166.572 269.894
v 209.505 166.317 269.972
v 209.597 167.039 269.985
v 209.468 168.511 270.156
v 176.316 169.112 271.019
v 182.716 170.058 270.708
v 195.667 172.818 271.775
v 198.335 173.622 273.697
v 183.363 154.498 271.324
v 172.193 158.311 272.263
v 192.5 158.304 270.874
v 172.067 161.268 270.648
v 171.59 162.238 271.268
v 171.107 163.234 271.698
v 206.758 162.455 272.921
v 209.729 165.825 270.756
v 210.573 167.861 271.295
v 174.604 167.314 271.215
v 208.986 170.334 270.887
v 175.951 169.03 273.262
v 179.478 170.088 276.533
v 190.204 170.49 272.787
v 206.203 172.407 272.071
v 184.066 154.997 272.304
v 177.092 156.818 275.223
v 185.579 155.598 272.885
v 181.602 156.287 273.644
v 176.171 156.382 274.08
v 187.864 156.977 273.367
v 180.572 157.23 274.643
v 187.817 157.695 273.839
v 165.874 158.026 274.849
v 166.017 158.96 273.596
v 169.535 158.16 273.666
v 172.367 157.788 273.327
v 171.481 157.601 274.62
v 190.883 158.401 273.342
v 168.464 158.82 273.032
v 171.464 158.539 272.6
v 187.243 161.059 275.499
v 190.78 159.046 274.117
v 191.646 158.433 272.855
v 168.294 159.531 272.579
v 171.223 159.244 272.082
v 171.869 159.075 271.67
v 193.085 159.474 273.979
v 171.017 160.779 271.686
v 188.928 160.379 275.163
v 165.312 162.113 272.577
v 204.741 161.852 276.061
v 200.57 161.27 274.631
v 165.011 165.764 272.51
v 166.553 164.965 272.118
v 172.63 164.954 271.27
v 209.865 164.332 273.245
v 167.3 166.516 272.141
v 209.71 165.06 271.63
v 210.498 165.147 272.55
v 213.583 165.95 273.301
v 165.766 165.752 272.282
v 170.457 165.719 272.037
v 173.354 167.286 272.295
v 210.388 166.022 271.603
v 211.152 166.752 271.853
v 165.708 167.274 272.694
v 168.777 168.039 272.366
v 215.05 166.677 273.38
v 214.258 166.634 272.956
v 216.322 166.848 274.42
v 169.626 167.279 272.188
v 171.815 167.989 272.635
v 211.175 167.606 271.691
v 214.169 167.355 272.476
v 214.894 168.104 272.461
v 165.837 168.621 273.327
v 171.075 167.982 272.489
v 173.999 168.171 272.97
v 175.018 168.261 272.281
v 215.593 168.833 272.641
v 216.272 168.761 273.167
v 217.239 168.428 274.722
v 216.849 168.009 274.155
v 171.615 168.574 272.924
v 171.674 169.309 273.611
v 175.15 169.187 274.732
v 210.504 170.254 271.684
v 215.488 170.328 272.628
v 168.517 169.404 273.118
v 170.045 169.402 273.182
v 216.766 170.122 273.8
v 166.942 169.718 273.711
v 181.72 169.326 278.943
v 216.003 170.871 273.127
v 191.399 170.855 273.752
v 213.048 172.698 272.896
v 216.117 171.585 273.665
v 217.142 171.327 275.031
v 208.714 172.321 272.214
v 214.417 172.443 273.099
v 215.129 172.572 273.682
v 216.718 171.635 274.462
v 191.877 170.639 277.824
v 212.076 173.25 273.081
v 212.817 174.004 274.382
v 215.144 173.174 274.436
v 176.422 156.598 275.03
v 176.17 156.788 275.637
v 176.581 156.983 275.839
v 176.679 157.51 276.478
v 167.506 155.41 280.706
v 162.791 159.476 274.776
v 172.763 157.304 275.765
v 178.851 160.437 276.932
v 179.906 160.663 276.572
v 162.198 159.672 274.858
v 155.424 160.795 278.155
v 162.636 160.124 274.381
v 163.207 161.343 273.684
v 183.884 162.4 276.279
v 158.354 162.125 274.978
v 197.807 162.155 275.763
v 201.067 161.525 276.43
v 163.275 167.321 273.806
v 194.331 165.054 277.127
v 196.072 164.31 277.056
v 157.271 163.623 275.346
v 158.674 164.99 274.389
v 157.435 164.428 275.057
v 157.97 165.029 274.708
v 197.307 163.835 277.31
v 156.611 166.73 276.959
v 158.588 167.231 275.163
v 160.144 167.289 274.412
v 216.982 166.554 276.84
v 162.388 169.54 275.085
v 175.877 169.845 276.992
v 167.141 170.316 274.358
v 186.02 170.042 275.442
v 188.084 169.817 276.687
v 165.842 171.902 277.2
v 158.355 168.99 277.323
v 168.416 171.522 276.124
v 170.237 170.926 275.266
v 189.858 170.048 276.635
v 216.412 173.001 275.843
v 214.701 176.328 282.235
v 174.655 157.126 276.925
v 174.993 157.333 277.465
v 171.112 156.614 278.316
v 175.118 159.295 281.038
v 178.049 161.652 278.876
v 198.511 163.048 277.3
v 201.106 161.803 278.467
v 202.686 161.56 277.08
v 179.961 165.059 281.761
v 178.686 162.391 278.669
v 179.421 163.162 278.435
v 178.936 163.099 278.959
v 185.537 165.668 277.627
v 155.238 163.689 277.452
v 155.311 164.738 277.415
v 181.26 165.96 278.851
v 181.804 166.227 278.697
v 189.803 168.336 278.445
v 183.153 167.94 278.831
v 182.376 167.906 279.18
v 185.819 168.295 278.37
v 191.923 168.323 279.015
v 183.029 168.662 278.729
v 218.504 169.414 277.351
v 190.291 169.612 277.997
v 192.677 170.895 279.801
v 195.598 172.997 276.923
v 199.89 174.197 280.024
v 170.785 155.929 279.772
v 170.907 155.8 280.358
v 171.134 155.905 280.686
v 169.864 156.158 278.641
v 171.267 156.299 279.566
v 172.262 156.962 280.33
v 172.765 157.264 279.044
v 173.916 157.725 279.211
v 158.901 156.085 283.531
v 164.932 155.005 282.162
v 152.506 160.206 280.854
v 153.551 161.309 278.938
v 152.083 162.731 279.526
v 200.297 162.196 279.753
v 199.995 162.401 279.201
v 200.481 162.059 279.758
v 200.844 162.159 279.784
v 200.626 162.174 280.43
v 199.82 163.564 279.929
v 200.445 162.279 279.916
v 200.241 162.639 279.733
v 200.576 162.53 280.14
v 201.401 162.215 280.472
v 151.822 165.042 279.451
v 151.396 163.6 280.068
v 200.1 163.066 279.993
v 199.299 164.462 279.939
v 151.322 166.517 280.458
v 152.429 165.766 278.951
v 198.47 165.733 279.934
v 199.018 164.977 279.917
v 153.124 165.745 278.494
v 180.673 166.255 280.048
v 180.085 165.217 279.695
v 217.751 165.436 280.07
v 218.958 167.404 278.819
v 181.2 166.907 279.713
v 197.426 166.744 279.953
v 198.746 165.375 279.957
v 219.001 169.082 278.096
v 219.475 166.228 280.695
v 218.973 166.677 279.473
v 152.021 168.952 281.303
v 153.092 167.297 278.865
v 154.538 169.546 279.242
v 180.879 166.602 279.935
v 194.044 168.631 279.946
v 196.661 167.194 279.851
v 195.588 167.886 279.913
v 197.801 166.42 279.932
v 198.125 166.084 279.956
v 217.821 167.585 277.132
v 221.672 167.69 284.609
v 153.834 168.072 278.709
v 156.851 168.137 277.674
v 181.828 168.1 279.98
v 181.746 167.686 279.67
v 194.565 168.362 279.936
v 197.075 167.033 279.934
v 153.346 169.993 280.929
v 182.22 168.659 279.21
v 181.792 168.559 280.262
v 188.77 168.94 278.185
v 190.442 168.923 278.575
v 191.262 168.792 278.928
v 191.638 169.325 279.178
v 192.86 169.045 279.904
v 196.641 167.286 279.956
v 154.949 170.697 280.253
v 174.304 170.77 278.53
v 181.035 169.602 279.223
v 179.842 169.891 279.211
v 180.786 169.387 280.559
v 181.294 168.212 282.22
v 191.075 169.459 278.703
v 192.205 169.404 279.661
v 195.112 168.106 279.946
v 218.739 172.184 278.448
v 153.987 170.052 280.246
v 191.699 169.874 278.968
v 192.279 170.148 280.012
v 192.444 169.447 280.501
v 220.611 169.951 280.286
v 173.581 172.128 282.174
v 219.848 172.568 280.213
v 221.417 170.831 282.328
v 192.341 169.957 281.832
v 171.13 173.071 283.8
v 219.429 173.649 280.932
v 218.393 174.054 280.081
v 216.863 174.936 280.014
v 171.259 156.857 283.399
v 153.124 158.521 282.824
v 199.597 162.558 281.103
v 200.163 162.301 280.499
v 200.102 162.297 281.262
v 199.586 162.493 281.818
v 200.805 162.306 281.445
v 198.152 163.339 281.392
v 198.121 163.214 282.145
v 197.668 163.458 281.881
v 199.927 162.661 280.574
v 200.587 162.356 280.525
v 201.377 162.378 281.639
v 195.507 165.258 280.773
v 198.559 163.562 280.746
v 200.12 162.872 280.283
v 195.021 164.953 281.427
v 194.955 164.793 282.195
v 194.495 165.04 281.906
v 217.234 164.419 289.563
v 193.311 166.212 280.831
v 194.903 165.444 280.848
v 193.347 165.556 282.183
v 195.834 166.351 280.205
v 198.33 164.131 280.454
v 218.895 165.332 282.307
v 180.671 166.011 280.508
v 181.46 166.236 282.351
v 181.193 166.151 281.236
v 181.944 166.406 282.092
v 188.668 166.987 281.356
v 192.674 166.165 281.208
v 188.925 166.689 281.886
v 191.506 166.229 282.07
v 195.307 165.852 280.461
v 180.946 166.6 280.213
v 182.694 166.871 281.486
v 183.405 166.907 281.997
v 185.361 167.19 281.63
v 187.008 167.181 281.535
v 187.559 167.022 282.031
v 189.306 167.061 281.044
v 193.723 166.636 280.454
v 194.265 167.152 280.203
v 182.371 167.211 281.085
v 183.134 167.272 281.344
v 184.856 167.408 281.471
v 189.705 167.461 280.832
v 192.815 167.293 280.367
v 181.786 167.78 280.517
v 182.128 167.584 280.964
v 182.663 167.589 281.318
v 183.439 167.56 281.545
v 185.285 167.744 281.604
v 191.111 168.011 280.635
v 182.021 168.008 281.365
v 182.815 167.713 281.847
v 184.531 167.731 282.009
v 185.955 168.088 282.103
v 186.659 168.114 281.558
v 189.979 168.448 281.43
v 191.808 168.574 280.669
v 192.491 168.968 280.513
v 193.186 168.751 280.185
v 186.398 168.198 281.911
v 189.27 168.445 282.054
v 191.256 169.175 282.322
v 191.75 169.193 281.423
v 191.813 169.501 282.998
v 156.547 173.769 284.69
v 173.443 172.284 285.509
v 206.977 175.846 284.404
v 165.389 154.292 286.372
v 165.718 154.217 284.975
v 165.939 154.399 284.104
v 167.015 154.623 284.28
v 149.918 160.013 294.919
v 151.256 158.987 284.791
v 167.612 155.028 287.038
v 150.753 160.838 282.611
v 151.717 159.462 282.929
v 148.457 161.935 286.78
v 148.246 165.072 284.512
v 179.168 164.942 283.249
v 176.736 165.571 289.155
v 199.204 163.07 283.219
v 203.086 163.514 286.426
v 195.795 165.031 283.827
v 198.379 165.007 285.323
v 201.582 163.758 286.533
v 207.814 163.506 288.351
v 179.295 166.415 284.413
v 179.815 165.125 282.483
v 193.794 165.493 282.92
v 179.987 166.441 283.71
v 191.251 166.393 282.798
v 189.779 166.618 282.676
v 191.764 166.659 283.553
v 220.091 165.566 286.909
v 148.657 168.105 283.911
v 149.239 167.318 282.953
v 149.873 167.287 282.347
v 180.7 166.489 283.209
v 182.289 166.727 282.496
v 184.921 167.19 282.412
v 188.299 167.084 282.636
v 190.267 167.382 283.511
v 199.084 165.226 286.832
v 150.506 167.244 281.803
v 180.011 167.202 283.814
v 179.439 167.335 284.4
v 181.403 167.129 282.999
v 182.221 167.157 282.706
v 183.091 167.216 282.571
v 184.81 167.432 282.558
v 188.872 167.496 283.074
v 190.918 167.279 283.753
v 191.558 167.812 284.461
v 195.911 167.62 289.129
v 149.908 168.877 282.719
v 179.968 167.977 283.589
v 179.335 168.208 284.138
v 182.014 167.663 282.418
v 183.827 167.551 282.371
v 189.546 167.977 283.156
v 190.286 167.967 283.508
v 190.831 167.803 283.859
v 149.371 170.752 284.914
v 150.602 170.402 283.064
v 178.781 168.966 283.935
v 190.345 168.54 283.029
v 191.138 168.532 283.938
v 148.227 168.785 285.163
v 148.963 170.395 285.245
v 177.537 169.857 284.06
v 191.144 169.032 283.094
v 191.689 169.03 284.608
v 221.819 169.636 283.479
v 150.545 171.101 283.875
v 221.564 172.115 283.81
v 222.311 170.251 286.324
v 153.397 172.961 284.757
v 220.478 173.211 282.304
v 221.363 173.29 284.917
v 169.489 173.557 288.42
v 219.583 174.525 282.917
v 220.686 174.235 284.849
v 212.152 176.943 284.956
v 218.582 176.012 285.833
v 165.845 154.298 286.781
v 158.335 155.648 288.227
v 168.029 156.254 288.715
v 169.765 156.72 286.995
v 150.295 159.553 285.788
v 200.955 164.026 286.728
v 178.147 168.08 287.267
v 192.739 168.281 287.024
v 192.334 168.808 286.784
v 192.556 169.406 286.881
v 149.04 171.076 286.57
v 175.44 170.868 287.997
v 149.226 174.208 290.909
v 222.366 171.21 288.292
v 214.993 177.367 289.892
v 166.183 154.475 287.277
v 150.144 159.385 291.783
v 170.326 157.787 288.022
v 149.126 160.277 289.269
v 147.159 164.709 287.926
v 221.122 166.961 290.879
v 195.974 169.873 290.989
v 221.964 168.513 290.547
v 192.574 168.649 287.176
v 148.08 169.493 286.396
v 193.589 169.752 287.924
v 196.559 172.078 290.668
v 174.412 171.638 287.514
v 159.843 175.196 288.937
v 221.411 174.219 288.398
v 216.92 176.996 288.808
v 160.232 155.652 289.527
v 165.115 154.976 288.172
v 165.934 155.095 288.463
v 164.17 156.227 289.784
v 166.562 155.594 288.906
v 167.261 155.57 288.507
v 159.311 155.702 291.026
v 159.251 155.555 290.219
v 159.758 155.915 291.458
v 165.693 158.096 290.921
v 167.325 158.445 290.312
v 164.117 158.021 292.209
v 169.61 157.775 288.858
v 168.978 160.613 290.9
v 169.656 158.554 289.445
v 169.664 163.313 293.335
v 171.985 160.135 288.895
v 149.682 159.653 291.259
v 146.844 163.135 291.048
v 172.04 162.287 290.431
v 172.811 161.668 289.548
v 173.563 161.698 288.927
v 173.594 165.678 293.102
v 201.24 166.22 292.701
v 145.785 168.211 290.722
v 176.007 167.659 291.557
v 146.716 168.836 288.881
v 196.992 169.448 291.893
v 176.151 168.87 290.814
v 194.951 170.097 289.455
v 195.961 170.502 291.065
v 147.681 172.495 290.254
v 196.01 171.476 290.613
v 147.007 171.697 290.366
v 153.296 175.852 290.884
v 207.639 176.198 295.77
v 221.951 173.481 289.393
v 222.184 171.706 293.138
v 163.482 174.692 289.565
v 220.798 174.988 289.382
v 160.478 177.975 294.287
v 219.573 176.059 294.044
v 155.597 157.222 292.726
v 146.322 163.515 295.293
v 145.474 166.717 292.271
v 175.916 168.33 291.618
v 175.371 168.533 292.346
v 174.918 169.887 291.848
v 196.5 169.671 291.537
v 174.658 170.387 291.408
v 196.048 171.033 291.107
v 173.079 170.977 293.735
v 196.365 171.777 291.008
v 166.057 174.773 295.759
v 159.375 156.037 291.854
v 158.087 156.565 292.348
v 158.877 156.695 292.778
v 158.658 157.852 293.662
v 159.474 157.194 293.248
v 155.731 158.073 295.026
v 157.092 157.831 293.871
v 158.617 159.109 294.538
v 156.802 158.566 295.55
v 162.866 162.636 295.526
v 165.704 163.813 294.624
v 166.459 164.511 294.918
v 167.219 164.563 294.601
v 169.043 165.841 295.4
v 172.454 167.36 295.265
v 217.006 164.584 299.217
v 175.563 167.097 292.113
v 173.833 168.776 294.19
v 220.391 166.573 292.483
v 220.393 167.133 295.279
v 174.906 167.835 292.985
v 173.316 168.3 294.97
v 199.5 169.369 294.374
v 200.853 167.768 294.907
v 221.572 169.114 295.715
v 145.068 170.385 295.085
v 173.871 169.526 293.905
v 173.441 169.715 294.864
v 174.893 169.198 292.572
v 197.129 170.885 292.577
v 198.71 170.253 293.94
v 199.406 170.94 295.179
v 222.062 171.262 296.258
v 173.202 170.371 294.886
v 172.415 171.213 295.479
v 196.42 171.406 291.511
v 197.607 171.389 292.795
v 199.067 172.007 293.767
v 199.534 171.647 295.238
v 199.852 172.403 294.775
v 146.602 174.405 295.539
v 150.46 177.276 294.075
v 148.208 176.702 296.963
v 209.964 176.793 297.135
v 155.743 179.202 294.702
v 151.982 178.402 295.092
v 154.41 178.779 294.106
v 154.937 158.495 296.503
v 149.794 160.999 298.643
v 159.323 161.175 297.915
v 157.671 160.177 298.173
v 204.172 165.96 297.552
v 162.519 164.126 298.996
v 219.073 165.928 297.388
v 201.013 169.512 297.631
v 172.769 169.254 297.016
v 200.346 171.042 297.508
v 145.094 171.138 299.544
v 172.574 170.362 297.055
v 200.154 171.734 297.183
v 200.388 172.635 295.696
v 221.696 174.115 299.436
v 169.382 173.198 297.736
v 201.287 172.907 296.935
v 203.762 172.878 299.166
v 149.251 177.232 295.877
v 156.121 159.071 297.738
v 155.015 158.823 297.46
v 212.702 164.265 298.664
v 210.46 165.319 300.664
v 164.124 165.701 299.425
v 170.498 167.539 298.122
v 220.851 167.244 300.912
v 220.09 166.402 301.034
v 172.353 168.253 297.263
v 172.104 171.037 296.773
v 172.275 170.603 297.314
v 222.423 171.169 299.882
v 169.915 172.717 297.319
v 170.877 170.916 298.555
v 200.157 172.007 296.861
v 147.062 175.722 299.209
v 167.26 174.457 296.609
v 220.972 175.279 300.406
v 210.594 176.088 300.59
v 152.029 160.729 299.943
v 155.469 159.663 298.91
v 155.735 161.201 300.931
v 151.097 161.876 301.924
v 154.709 162.073 302.533
v 162.616 166.323 300.401
v 157.449 164.399 304.214
v 146.822 163.911 300.18
v 165.671 168.639 300.462
v 203.986 166.992 298.984
v 162.878 167.543 301.244
v 203.303 167.749 299.047
v 206.647 168.091 302.016
v 208.737 168.386 303.335
v 168.882 168.113 299.384
v 170.432 168.133 298.836
v 171.121 168.804 298.916
v 171.816 168.108 297.806
v 145.554 168.109 301.618
v 168.002 170.174 300.622
v 171.062 169.48 299.1
v 201.797 170.21 298.947
v 222.338 170.651 299.836
v 168.789 170.218 300.176
v 169.601 169.565 299.685
v 205.327 169.705 301.76
v 170.125 170.807 299.331
v 201.063 171.687 298.344
v 201.652 170.829 298.92
v 202.301 171.444 299.275
v 203.022 170.608 299.748
v 168.641 171.14 301.197
v 166.56 170.189 301.748
v 169.503 170.947 299.916
v 169.435 171.87 300.581
v 170.293 171.543 298.737
v 169.619 172.769 299.277
v 201.561 172.175 298.405
v 200.402 171.98 297.396
v 204.47 172.11 300.213
v 206.439 170.782 302.994
v 146.745 174.618 302.515
v 202.984 172.845 298.675
v 206.609 173.376 301.727
v 168.34 174.648 299.393
v 216.56 176.812 302.46
v 148.614 178.101 302.866
v 152.978 181.729 301.905
v 156.744 181.313 299.378
v 164.823 180.817 302.566
v 214.77 164.58 302.34
v 215.548 164.365 301.825
v 217.874 164.364 302.906
v 219.33 165.631 301.274
v 146.316 165.471 301.527
v 222.208 169.59 300.479
v 145.287 170.518 301.194
v 207.081 172.198 303.05
v 169.277 173.445 302.017
v 215.55 176.487 304.59
v 147.455 165.179 303.324
v 149.991 164.287 305.03
v 155.054 164.175 304.724
v 153.073 164.111 305.187
v 151.908 163.676 304.524
v 217.554 163.967 304.558
v 216.338 164.263 303.165
v 221.509 164.722 304.128
v 221.1 164.36 304.445
v 151.777 163.967 306.888
v 213.737 165.09 302.698
v 213.671 165.545 303.817
v 220.794 165.182 303.014
v 147.631 166.16 304.82
v 153.533 164.304 305.625
v 159.367 165.529 303.824
v 158.475 165.266 305.486
v 211.305 167.749 304.071
v 220.019 165.745 301.933
v 222.844 165.921 304.042
v 223.596 168.885 302.564
v 146.688 170.96 305.104
v 146.629 169.718 306.625
v 161.537 168.798 305.388
v 160.562 167.502 306.522
v 212.264 168.187 305.759
v 224.271 168.068 303.789
v 207.877 169.848 303.573
v 206.629 169.438 302.921
v 211.372 168.462 304.54
v 225.08 168.706 304.757
v 224.78 169.423 303.814
v 163.267 169.76 304.706
v 210.602 170.321 304.398
v 207.839 170.599 303.663
v 211.552 169.846 305.506
v 223.036 170.788 301.436
v 223.63 171.414 302.18
v 224.78 170.951 303.683
v 165.895 171.197 305.095
v 166.414 170.936 303.557
v 207.091 171.433 303.318
v 210.761 172.811 304.311
v 211.505 170.626 305.623
v 223.025 172.604 301.649
v 146.616 173.789 303.111
v 146.888 171.64 305.591
v 166.388 171.29 304.635
v 165.076 170.897 307.018
v 168.788 172.52 303.438
v 208.562 172.89 303.469
v 211.639 172.273 305.753
v 224.541 173.294 304.637
v 225.875 172.152 306.878
v 170.517 174.525 306.219
v 170.026 174.659 304.105
v 169.526 175.992 303.482
v 210.85 174.425 303.432
v 212.387 174.608 304.738
v 212.876 174.33 307.101
v 223.577 174.604 305.038
v 169.933 175.336 303.968
v 212.367 175.22 303.656
v 222.863 175.948 312.404
v 170.782 175.874 307.528
v 150.147 180.382 304.834
v 153.771 182.477 302.383
v 152.395 182.752 304.853
v 159.832 184.314 303.652
v 164.884 182.497 304.822
v 155.785 184.77 305.09
v 152.961 182.959 304.164
v 158.747 185.269 305.718
v 216.605 163.819 306.29
v 219.905 163.353 306.392
v 149.219 164.669 306.88
v 153.789 164.353 306.71
v 215.585 164.347 306.025
v 156.069 164.588 306.006
v 159.138 165.66 307.079
v 213.318 166.939 306.721
v 223.942 165.615 306.99
v 147.966 165.906 306.135
v 147.655 166.388 305.6
v 212.232 169.118 307.262
v 161.782 169.132 306.319
v 161.805 169.071 306.857
v 225.73 168.328 306.999
v 146.686 171.293 306.744
v 212.303 173.33 307.103
v 169.237 172.472 309.78
v 215.248 176.094 307.174
v 148.733 180.065 311.403
v 221.604 163.843 306.608
v 215.191 164.532 307.196
v 158.295 165.119 306.719
v 147.8 165.797 306.879
v 147.472 166.484 306.562
v 146.942 166.787 307.242
v 146.862 174.894 307.476
v 170.929 174.283 308.951
v 170.863 175.311 307.572
v 213.952 175.117 308.488
v 225.073 174.472 309.682
v 217.804 176.261 313.695
v 150.756 182.305 311.205
v 152.135 184.051 312.911
v 153.665 184.412 308.191
v 220.196 159.784 309.6
v 220.051 158.886 311.57
v 219.729 159.287 310.669
v 223.777 158.501 312.158
v 224.216 159.118 309.909
v 224.479 158.807 310.743
v 217.384 160.093 312.212
v 223.977 159.642 309.14
v 224.728 159.647 309.381
v 225.428 159.073 310.956
v 225.509 159.628 309.948
v 221.505 160.387 308.618
v 220.466 162.445 307.746
v 223.806 160.295 308.605
v 225.261 161.006 308.597
v 226.102 160.326 309.595
v 225.185 163.324 308.206
v 226.007 160.994 308.99
v 226.648 161.667 309.188
v 227.583 160.912 311.223
v 144.854 163.873 309.729
v 145.264 163.272 310.568
v 143.475 164.534 309.846
v 148.704 163.456 309.311
v 150.825 163.334 308.65
v 157.589 163.238 310.031
v 152.812 162.802 309.361
v 222.9 163.325 307.835
v 226.627 163.194 308.879
v 143.951 165.106 309.119
v 147.642 164.09 308.727
v 152.181 163.707 307.685
v 225.931 164.071 308.424
v 143.179 165.886 309.448
v 142.967 164.684 310.225
v 147.184 165.219 307.887
v 160.143 164.695 310.574
v 223.802 164.874 307.516
v 225.944 164.865 308.396
v 147.923 165.148 307.499
v 160.877 165.464 310.055
v 161.197 166.004 309.674
v 161.345 165.716 310.161
v 225.274 165.704 307.974
v 146.495 166.223 307.759
v 144.504 165.784 308.573
v 147.223 165.901 307.426
v 225.358 166.525 307.716
v 143.686 168.144 308.803
v 163.981 169.187 310.646
v 225.48 167.424 307.288
v 226.187 168.195 307.795
v 227.275 168.642 309.01
v 146.227 170.056 307.288
v 143.071 172.124 309.655
v 212.571 170.996 310.862
v 226.402 171.001 307.589
v 144.339 173.584 309.095
v 225.791 173.229 308.248
v 227.068 172.033 309.673
v 227.679 171.581 310.406
v 212.897 172.623 311.075
v 227.067 172.689 310.606
v 226.79 173.21 311.048
v 213.91 174.231 312.129
v 224.677 175.039 311.749
v 147.036 175.81 307.794
v 170.993 177.529 310.059
v 144.939 176.888 311.696
v 147.508 176.628 307.606
v 150.069 180.922 309.795
v 164.675 187.223 319.671
v 226.91 159.707 312.296
v 143.289 163.545 311.355
v 228.691 163.072 312.425
v 141.336 164.005 312.908
v 160.981 164.037 311.63
v 161.656 165.811 310.425
v 214.418 164.846 311.138
v 213.735 167.83 316.3
v 214.174 171.662 316.655
v 171.915 173.069 314.863
v 141.317 173.602 313.18
v 172.04 175.446 312.822
v 171.904 177.159 312.988
v 146.178 177.132 310.847
v 168.596 183.89 313.688
v 160.571 187.328 314.718
v 159.93 158.734 314.214
v 158.65 158.549 314.37
v 157.721 159.062 313.985
v 224.397 158.685 314.857
v 218.525 158.986 314.881
v 226.928 159.706 314.832
v 159.088 159.792 313.006
v 159.678 159.694 313.156
v 216.244 160.892 315.59
v 155.683 161.014 312.398
v 154.247 159.575 314.87
v 152.32 160.67 314.336
v 158 161.048 312.331
v 161.081 161.005 312.898
v 157.079 162.229 311.223
v 157.944 161.754 311.934
v 229.459 163.789 315.081
v 227.986 160.854 314.492
v 140.439 163.564 314.687
v 140.774 164.156 313.662
v 164.68 162.1 314.098
v 163.543 166.642 311.881
v 167.869 169.323 314.8
v 165.475 162.562 314.874
v 140.293 166.565 315.068
v 139.843 169.367 315.419
v 163.669 167.441 311.633
v 140.241 169.044 313.939
v 230.228 169.497 313.98
v 139.959 169.37 314.526
v 230.444 170.563 315.517
v 140.173 169.791 313.776
v 167.993 169.943 313.964
v 229.658 170.333 312.971
v 140.093 170.862 314.335
v 170.601 170.482 316.674
v 229.364 171.797 313.872
v 230.128 170.937 314.658
v 140.613 173.484 315.187
v 229.728 172.09 315.968
v 140.868 173.983 314.605
v 142.28 176.661 314.407
v 223.308 175.358 315.206
v 140.751 173.94 316.694
v 172.519 174.326 315.534
v 215.355 174.939 315.029
v 143.503 176.794 312.68
v 173.521 173.736 323.924
v 216.723 175.653 315.269
v 142.172 177.039 315.958
v 221.781 174.114 320.278
v 142.333 177.067 314.994
v 145.813 179.888 313.22
v 144.474 179.595 314.726
v 145.769 180.548 314.147
v 171.281 181.412 317.601
v 145.917 181.067 314.91
v 147.502 182.016 314.454
v 150.256 182.273 312.094
v 149.595 182.804 313.728
v 160.484 158.444 314.982
v 218.574 159.114 315.766
v 220.458 159.628 317.139
v 153.244 160.12 314.679
v 215.626 161.848 315.474
v 139.774 161.653 317.236
v 139.697 161.725 317.781
v 139.877 161.807 317.059
v 140.513 162.374 315.633
v 140.338 161.879 316.476
v 139.829 169.889 315.685
v 172.265 173.573 315.297
v 215.284 174.563 315.663
v 144.574 180.068 315.752
v 145.425 181.253 317.728
v 166.139 153.453 317.552
v 166.59 153.318 317.914
v 166.378 152.601 318.974
v 165.94 152.507 319.261
v 166.774 152.61 319.362
v 166.988 152.865 318.917
v 161.293 155.598 316.715
v 165.256 154.008 317.068
v 165.784 155.437 316.53
v 165.117 154.728 316.638
v 164.279 155.489 316.357
v 166.474 156.164 316.685
v 167.24 155.317 317.692
v 164.982 156.231 316.229
v 167.151 156.099 317.263
v 167.15 158.422 316.958
v 158.629 156.956 316.147
v 157.566 157.382 315.926
v 165.712 157.776 316.235
v 146.706 158.662 317.9
v 147.258 159.12 316.882
v 148.465 157.323 319.843
v 161.871 158.579 315.656
v 145.238 159.381 317.914
v 164.877 161.031 315.395
v 165.715 158.571 316.203
v 218.291 159.499 316.326
v 219.042 159.309 316.467
v 225.12 159.077 315.785
v 144.993 159.836 317.268
v 144.362 159.808 317.903
v 145.428 160.304 316.451
v 151.261 159.779 315.697
v 226.685 160.961 317.137
v 141.691 160.484 317.603
v 143.612 159.903 318.27
v 162.684 159.95 315.313
v 168.01 160.838 317.574
v 217.048 161.026 317.508
v 219.52 160.754 318.345
v 221.751 161.332 318.645
v 224.401 160.269 317.447
v 140.288 160.323 319.173
v 151.938 160.196 315.139
v 165.789 161.999 315.484
v 169.603 160.641 321.402
v 225.186 160.992 317.691
v 227.331 160.926 316.46
v 139.593 161.587 318.91
v 167.935 162.429 317.006
v 168.83 161.549 318.716
v 217.629 162.501 321.431
v 225.157 163.155 318.301
v 223.929 163.203 318.965
v 139.872 162.179 317.203
v 215.879 163.802 320.354
v 222.344 162.834 321.27
v 218.336 161.782 320.529
v 223.619 162.443 318.612
v 225.136 163.754 318.635
v 227.474 163.205 317.741
v 228.135 162.414 316.768
v 139.797 162.69 317.605
v 224.171 164.13 319.807
v 228.175 164.614 318.292
v 224.531 163.739 318.905
v 227.287 164.422 318.66
v 214.158 166.194 316.683
v 224.357 164.767 321.086
v 228.865 165.583 319.258
v 229.301 165.819 318.722
v 230.75 169.135 319.24
v 168.944 168.069 316.985
v 168.335 168.827 315.761
v 139.989 170.804 316.375
v 170.892 167.495 321.9
v 172.822 172.376 318.869
v 171.465 171.984 315.754
v 230.38 170.39 320.927
v 215.475 171.582 320.023
v 216.239 173.277 319.238
v 216.564 174.54 317.343
v 216.776 173.606 319.741
v 217.508 174.6 318.198
v 218.138 175.244 317.275
v 148.73 183.801 319.051
v 151.478 185.068 318.504
v 167.749 153.727 319.837
v 150.922 153.708 324.945
v 168.504 153.504 322.032
v 144.908 159.37 319.083
v 140.115 160.237 320.331
v 139.668 161.163 319.789
v 141.244 159.489 320.456
v 141.247 160.143 318.47
v 143.847 159.417 320.071
v 143.764 159.642 319.205
v 144.205 159.572 319.405
v 143.908 159.565 319.652
v 144.685 159.371 319.897
v 139.694 161.87 321.32
v 215.057 167.75 320.678
v 229.498 167.186 321.512
v 228.657 166.065 321.076
v 230.399 168.035 319.915
v 228.897 172.33 319.908
v 216.495 172.613 321.475
v 219.475 172.677 323.005
v 173.096 172.563 320.267
v 144.835 180.191 321.698
v 144.593 180.271 320.637
v 171.198 181.821 320.368
v 146.026 181.853 320.689
v 147.171 182.923 320.32
v 148.307 183.044 322.11
v 167.867 184.323 325.726
v 154.514 186.159 321.228
v 162.774 186.95 324.66
v 168.249 152.534 323.874
v 144.138 158.778 321.65
v 148.573 155.488 323.054
v 145.362 157.827 323.777
v 140.188 160.238 321.361
v 218.44 162.1 321.39
v 219.687 162.767 322.45
v 218.912 162.373 321.969
v 221.261 162.854 322.1
v 216.141 165.528 322.241
v 215.942 167.105 322.398
v 226.814 166.676 322.983
v 142.86 167.289 331.324
v 230.211 168.179 321.049
v 230.533 169.247 320.673
v 216.717 172.256 322.152
v 229.491 171.394 321.235
v 221.806 172.56 322.977
v 217.21 173.497 321.147
v 172.853 177.781 325.414
v 147.161 182.768 321.188
v 166.572 152.123 323.871
v 169.186 152.958 323.899
v 169.685 153.382 323.888
v 169.6 153.018 324.589
v 170.043 153.497 324.346
v 169.917 153.249 324.504
v 170.092 153.409 324.832
v 171.52 163.104 326.152
v 147.841 155.324 324.401
v 148.054 155.018 325.032
v 147.143 156.082 324.709
v 146.575 156.92 323.965
v 139.982 161.43 322.401
v 140.201 162.597 323.418
v 217.613 163.158 322.214
v 218.397 163.154 322.761
v 216.972 164.68 322.828
v 217.689 163.891 322.921
v 218.289 163.713 323.117
v 218.958 164.307 323.558
v 221.954 163.426 322.425
v 222.013 164.15 323.032
v 218.191 165.1 323.602
v 220.458 165.751 323.898
v 222.824 166.515 323.82
v 223.613 165.695 323.209
v 171.92 166.066 325.744
v 228.302 168.072 323.361
v 215.518 167.691 321.752
v 216.102 167.845 322.639
v 218.094 169.762 323.752
v 225.993 168.107 323.794
v 227.561 167.364 323.304
v 228.972 167.281 322.373
v 219.621 171.251 323.741
v 226.633 171.078 323.4
v 228.246 169.55 323.535
v 228.992 168.768 323.163
v 172.085 168.82 323.388
v 172.77 169.517 324.85
v 217.363 170.64 323.4
v 226.742 169.637 323.793
v 229.642 168.71 322.489
v 228.935 169.48 323.242
v 229.423 170.01 322.727
v 228.876 170.16 323.078
v 143.43 171.629 325.937
v 217.352 172.131 322.838
v 218.082 171.321 323.523
v 228.126 170.945 322.99
v 228.743 170.735 322.82
v 229.479 170.734 322.093
v 218.798 172.016 323.399
v 217.982 172.722 322.71
v 225.8 171.82 322.989
v 144.191 174.604 324.351
v 143.624 176.248 323.221
v 221.659 173.181 322.257
v 144.416 177.766 323.287
v 145.006 175.382 324.658
v 146.814 174.695 327.613
v 145.064 176.182 324.254
v 145.214 179.317 323.103
v 151.352 182.602 324.703
v 147.422 178.598 324.422
v 145.939 179.275 323.619
v 146.051 180.842 322.701
v 147.525 181.588 323.252
v 152.72 183.67 325.055
v 154.512 185.106 324.813
v 157.888 185.998 325.582
v 159.685 152.27 327.436
v 168.673 152.546 324.984
v 170.08 153.553 325.564
v 150.391 154.185 331.401
v 148.304 154.836 325.978
v 148.07 155.068 326.609
v 146.813 156.501 325.038
v 172.725 169.099 325.65
v 143.761 170.055 330.844
v 173.648 173.074 327.678
v 151.557 180.956 326.605
v 154.149 184.434 325.759
v 155.992 185.525 325.474
v 161.881 186.701 325.345
v 159.988 152.213 328.472
v 160.496 152.299 329.087
v 161.159 152.515 330.059
v 166.804 152.444 328.471
v 169.286 153.064 326.817
v 168.56 152.788 327.526
v 168.854 153.355 329.647
v 169.48 154.058 329.73
v 147.978 155.454 327.537
v 170.195 154.442 326.593
v 170.42 158.947 330.771
v 143.186 162.232 332.068
v 172.81 172.132 333.397
v 173.683 172.251 328.662
v 145.732 172.522 330.104
v 148.39 175.48 328.093
v 171.371 179.951 327.248
v 149.277 175.104 329.072
v 150.775 176.373 328.531
v 151.518 177.07 328.357
v 153.896 183.174 326.91
v 159.349 183.365 328.431
v 159.015 182.204 329.481
v 165.561 185.403 326.713
v 163.069 183.428 332.081
v 167.757 182.562 329.992
v 160.131 184.781 327.683
v 162.013 184.142 329.85
v 161.08 184.24 328.697
v 161.982 184.473 328.977
v 159.473 152.25 329.85
v 158.97 152.539 331.234
v 153.271 153.001 330.228
v 169.15 154.354 331.033
v 145.37 162.042 335.12
v 173.1 173.859 331.047
v 171.617 177.13 331.637
v 149.119 172.927 333.304
v 168.497 179.512 333.027
v 160.972 182.852 331.825
v 162.361 183.807 331.232
v 158.381 152.494 330.47
v 157.775 152.721 330.811
v 153.386 153.26 331.413
v 159.461 152.821 332.059
v 165.762 153.416 332.146
v 168.17 153.422 331.063
v 168.943 153.972 331.062
v 169.135 153.758 330.239
v 148.718 156.169 331.508
v 145.252 170.598 332.791
v 146.273 172.523 331.375
v 173.464 172.395 331.008
v 173.583 172.799 330.001
v 148.715 173.974 331.222
v 166.926 182.507 331.409
v 160.15 153.253 332.776
v 150.19 154.586 331.906
v 150.618 154.914 332.91
v 152.688 156.311 335.999
v 167.243 153.922 332.417
v 168.511 153.8 331.408
v 167.262 154.607 332.98
v 167.995 155.256 332.83
v 162.689 156.012 335.739
v 165.146 156.591 335.037
v 168.834 158.42 333.44
v 149.451 159.089 335.944
v 167.65 159.53 335.752
v 165.682 159.36 337.366
v 144.855 163.175 335.74
v 147.839 162.262 337.098
v 168.05 163.251 337.276
v 146.049 165.937 336.947
v 144.99 163.786 336.166
v 171.03 170.28 336.792
v 146.377 168.325 336.181
v 149.035 169.641 337.045
v 152.174 171.166 336.93
v 153.097 175.301 333.078
v 171.999 173.186 334.649
v 157.958 175.438 334.304
v 157.242 174.793 334.519
v 158.477 172.746 337.114
v 159.018 174.934 334.763
v 159.625 175.553 334.428
v 163.63 175.782 334.943
v 162.676 176.968 334.184
v 170.227 174.831 334.956
v 167.635 176.359 334.385
v 164.309 176.97 334.278
v 163.591 176.337 334.502
v 169.74 176.801 333.736
v 157.039 177.653 333.497
v 167.952 179.005 333.531
v 170.049 177.969 332.952
v 160.21 180.799 333.366
v 163.276 181.506 333.658
v 166.144 181.821 332.868
v 160.244 181.567 332.78
v 161.745 181.544 333.528
v 165.569 181.346 333.399
v 160.992 182.283 332.615
v 162.482 182.246 333.276
v 163.21 182.201 333.358
v 163.768 182.728 332.909
v 162.447 182.918 332.661
v 145.621 162.556 335.96
v 170.986 168.666 336.204
v 171.935 172.078 335.561
v 155.376 171.241 337.555
v 171.503 173.002 335.562
v 171.627 172.368 335.871
v 161.746 172.056 337.806
v 164.006 174.786 336.278
v 153.904 157.955 337.529
v 152.589 157.493 337.056
v 161.787 157.878 337.548
v 163.354 157.157 336.863
v 152.432 158.057 337.289
v 150.884 159.699 337.326
v 164.889 157.86 336.789
v 150.763 161.12 337.635
v 146.175 163.669 337.064
v 146.834 164.301 337.507
v 145.605 163.87 336.795
v 147.651 163.533 337.561
v 145.461 164.457 336.732
v 148.348 164.219 337.804
v 153.046 164.149 337.983
v 170.379 168.747 336.969
v 146.773 165.848 337.46
v 155.417 169.692 337.927
v 148.3 166.553 337.849
v 150.657 168.901 337.793
v 148.306 168.14 337.579
v 169.624 170.398 337.676
v 147.588 168.926 336.828
v 149.863 168.902 337.68
v 168.006 172.731 337.531
v 170.349 170.343 337.354
v 168.812 171.967 337.661
v 170.843 171.614 336.963
v 169.476 172.638 337.274
v 170.29 171.802 337.241
v 171.004 172.336 336.517
v 167.002 174.14 336.677
v 169.302 173.207 337.039

f 1 2 3
f 3 2 4
f 5 1 3
f 6 5 7
f 5 3 8
f 3 4 8
f 8 4 9
f 5 8 7
f 7 8 10
f 10 8 11
f 8 9 11
f 10 11 12
f 13 7 10
f 9 4 14
f 11 9 14
f 10 12 15
f 13 10 15
f 13 16 7
f 12 11 17
f 17 11 14
f 15 12 17
f 14 18 17
f 13 15 17
f 17 18 19
f 20 21 22
f 1 22 21
f 21 20 2
f 5 22 1
f 2 20 23
f 1 21 2
f 6 22 5
f 2 23 24
f 2 24 4
f 25 6 26
f 6 7 16
f 26 6 16
f 27 23 28
f 24 23 27
f 26 16 29
f 25 26 30
f 31 27 28
f 24 27 4
f 16 32 29
f 26 29 32
f 30 26 32
f 32 16 30
f 30 16 13
f 25 30 33
f 34 25 33
f 35 27 31
f 4 27 35
f 4 35 14
f 17 36 13
f 30 13 36
f 37 30 36
f 38 30 37
f 33 30 38
f 39 35 31
f 14 19 18
f 14 35 19
f 33 38 37
f 34 33 40
f 41 25 34
f 40 41 34
f 19 35 39
f 17 19 36
f 37 36 42
f 40 33 37
f 36 19 42
f 42 43 37
f 40 37 43
f 44 45 46
f 47 44 46
f 45 44 48
f 49 45 22
f 44 47 50
f 48 44 50
f 51 49 22
f 50 47 52
f 48 50 22
f 45 48 22
f 52 47 53
f 22 50 52
f 51 22 6
f 54 52 53
f 55 54 53
f 20 52 23
f 22 52 20
f 54 55 56
f 52 54 23
f 25 51 6
f 54 56 23
f 23 56 28
f 28 56 57
f 58 51 25
f 57 31 28
f 59 25 60
f 31 61 39
f 25 41 60
f 40 60 41
f 40 43 60
f 19 39 61
f 42 19 61
f 62 60 43
f 43 42 63
f 64 43 63
f 62 43 64
f 65 42 66
f 63 42 65
f 64 63 65
f 45 67 68
f 67 45 69
f 51 45 49
f 69 45 51
f 68 46 45
f 46 68 47
f 70 53 47
f 71 70 72
f 70 71 53
f 72 73 71
f 55 53 56
f 53 71 74
f 53 74 56
f 57 71 73
f 74 71 57
f 74 57 56
f 75 58 76
f 77 75 76
f 58 25 59
f 76 58 59
f 78 76 59
f 79 76 78
f 80 76 79
f 81 77 82
f 82 77 76
f 82 83 81
f 78 59 84
f 79 78 85
f 80 79 85
f 76 80 86
f 82 76 86
f 83 82 87
f 87 81 83
f 88 89 57
f 57 89 31
f 90 78 84
f 85 78 90
f 82 86 91
f 87 82 92
f 92 82 91
f 31 89 61
f 59 60 84
f 80 85 90
f 86 80 93
f 91 86 93
f 92 91 94
f 90 84 95
f 80 90 95
f 93 80 96
f 96 80 95
f 91 93 96
f 92 94 97
f 98 89 88
f 61 89 99
f 99 89 98
f 84 60 62
f 95 84 62
f 96 95 100
f 91 96 100
f 94 91 101
f 101 91 100
f 101 97 94
f 61 99 98
f 95 62 102
f 42 61 103
f 103 66 42
f 104 66 103
f 64 102 62
f 105 102 106
f 95 102 105
f 65 66 104
f 64 65 102
f 107 106 102
f 105 106 108
f 108 106 107
f 95 105 100
f 100 105 108
f 109 102 65
f 107 102 108
f 108 102 109
f 69 110 67
f 68 111 70
f 69 51 110
f 58 110 51
f 47 68 70
f 70 73 72
f 112 73 70
f 73 113 57
f 58 75 114
f 115 77 81
f 115 81 87
f 87 92 116
f 116 92 97
f 98 88 117
f 61 98 117
f 103 61 104
f 110 118 67
f 67 118 119
f 68 119 111
f 119 68 67
f 120 110 58
f 121 120 58
f 112 113 73
f 77 122 75
f 88 57 113
f 115 122 77
f 123 122 115
f 115 87 116
f 123 115 116
f 123 116 124
f 124 125 123
f 126 116 97
f 126 124 116
f 65 104 109
f 119 118 127
f 127 111 119
f 128 111 127
f 118 128 127
f 110 120 118
f 118 120 129
f 130 131 132
f 111 131 70
f 133 120 121
f 70 131 130
f 130 132 134
f 70 130 112
f 58 114 121
f 113 130 134
f 112 130 113
f 122 114 75
f 135 136 113
f 123 137 122
f 113 136 88
f 137 123 138
f 88 136 139
f 140 125 126
f 140 138 125
f 138 123 125
f 125 124 126
f 141 140 126
f 142 141 126
f 139 143 88
f 126 97 101
f 142 126 101
f 88 143 117
f 61 117 144
f 61 144 104
f 108 101 100
f 145 108 109
f 101 108 146
f 108 145 146
f 128 147 111
f 118 147 128
f 129 133 118
f 118 133 147
f 131 111 147
f 120 133 129
f 148 132 131
f 121 114 149
f 134 150 113
f 150 151 113
f 113 151 135
f 151 152 135
f 137 153 122
f 153 137 138
f 140 141 154
f 154 141 155
f 139 156 143
f 155 141 157
f 141 142 157
f 117 158 159
f 117 159 144
f 157 142 101
f 117 143 158
f 104 144 160
f 104 160 109
f 101 146 161
f 162 147 133
f 162 163 147
f 133 164 162
f 164 165 162
f 147 166 131
f 163 166 147
f 162 165 163
f 167 165 164
f 133 167 164
f 163 165 168
f 167 169 165
f 170 171 172
f 172 173 174
f 173 148 131
f 174 173 131
f 133 169 167
f 175 169 133
f 133 149 175
f 133 121 149
f 172 171 176
f 173 172 177
f 148 173 177
f 132 148 134
f 178 165 169
f 179 178 169
f 175 179 169
f 180 175 149
f 176 171 181
f 172 176 181
f 182 172 181
f 177 172 182
f 148 177 183
f 183 177 182
f 134 183 150
f 148 183 134
f 180 179 175
f 149 184 180
f 184 179 180
f 182 181 185
f 183 182 185
f 184 186 179
f 149 114 184
f 183 185 150
f 114 122 184
f 185 181 187
f 185 151 150
f 185 187 152
f 151 185 152
f 122 188 189
f 153 188 122
f 187 190 191
f 192 152 187
f 153 138 193
f 194 187 191
f 192 187 194
f 135 192 136
f 135 152 192
f 138 195 193
f 196 193 195
f 197 193 196
f 191 190 198
f 192 194 199
f 200 192 199
f 136 192 139
f 138 140 195
f 154 195 140
f 154 201 195
f 201 196 195
f 202 196 201
f 197 196 202
f 191 198 203
f 194 191 203
f 199 194 204
f 139 192 156
f 192 200 156
f 201 154 155
f 202 201 155
f 205 197 206
f 207 197 205
f 198 190 203
f 208 199 204
f 209 199 208
f 200 199 209
f 202 155 210
f 197 202 210
f 211 197 210
f 206 197 211
f 205 206 212
f 212 206 211
f 190 213 203
f 194 203 213
f 208 204 214
f 209 208 214
f 215 200 209
f 156 200 216
f 216 200 215
f 155 157 210
f 205 212 217
f 207 205 218
f 218 205 217
f 219 207 220
f 220 207 218
f 221 214 204
f 209 214 221
f 222 209 221
f 223 215 222
f 222 215 209
f 216 215 223
f 216 143 156
f 216 158 143
f 216 223 158
f 210 157 224
f 211 210 225
f 212 211 225
f 217 212 225
f 226 194 213
f 204 194 226
f 227 204 226
f 221 204 227
f 222 221 227
f 218 217 225
f 220 218 228
f 228 219 220
f 226 213 229
f 227 226 222
f 230 144 159
f 225 210 224
f 218 225 231
f 228 218 231
f 160 232 145
f 109 160 145
f 101 224 157
f 225 224 233
f 228 231 234
f 235 219 228
f 234 235 228
f 161 236 101
f 224 101 236
f 225 233 237
f 231 225 238
f 238 225 237
f 234 231 238
f 239 235 234
f 145 240 146
f 236 161 233
f 224 236 233
f 234 238 239
f 241 233 161
f 233 241 242
f 238 237 233
f 239 238 243
f 241 161 242
f 233 242 243
f 238 233 243
f 166 244 245
f 131 166 245
f 163 246 244
f 163 244 166
f 247 246 163
f 168 247 163
f 248 249 170
f 131 250 174
f 251 247 168
f 165 252 168
f 253 248 254
f 248 253 249
f 252 251 168
f 249 253 255
f 256 249 255
f 171 249 181
f 171 170 249
f 178 257 252
f 165 178 252
f 178 179 186
f 254 258 256
f 253 254 256
f 255 253 256
f 249 256 181
f 184 122 189
f 181 256 187
f 189 259 184
f 189 188 260
f 256 261 187
f 184 178 186
f 262 178 184
f 263 184 259
f 153 193 188
f 256 258 264
f 187 261 190
f 184 263 262
f 256 264 265
f 265 264 266
f 261 256 265
f 265 266 267
f 268 263 259
f 269 270 266
f 267 266 270
f 265 267 270
f 261 265 271
f 197 207 272
f 265 270 271
f 261 271 273
f 190 261 213
f 273 271 270
f 261 273 213
f 158 223 159
f 223 274 159
f 275 213 273
f 229 213 275
f 275 226 229
f 144 230 276
f 144 276 277
f 160 144 232
f 144 277 232
f 278 273 279
f 226 275 280
f 222 226 280
f 281 222 280
f 145 232 282
f 240 145 282
f 275 273 278
f 280 275 278
f 239 283 235
f 239 243 283
f 161 284 242
f 242 284 243
f 244 246 245
f 245 285 250
f 131 245 250
f 245 247 285
f 286 285 247
f 245 246 247
f 172 248 170
f 250 287 174
f 174 287 172
f 288 247 289
f 247 251 289
f 252 257 251
f 290 189 260
f 290 260 291
f 260 292 291
f 188 292 260
f 293 289 294
f 251 295 289
f 295 294 289
f 257 295 251
f 188 291 292
f 296 293 294
f 295 296 294
f 295 257 297
f 189 290 259
f 264 298 299
f 298 264 258
f 297 300 295
f 257 178 297
f 188 193 197
f 297 301 300
f 263 268 262
f 259 290 268
f 264 299 266
f 296 295 300
f 302 297 178
f 262 302 178
f 303 304 301
f 297 305 301
f 305 303 301
f 306 302 262
f 302 305 297
f 207 219 272
f 273 270 279
f 223 222 281
f 276 230 307
f 277 276 307
f 232 277 282
f 219 235 308
f 282 309 240
f 310 146 240
f 310 311 146
f 146 311 312
f 312 161 146
f 243 284 283
f 248 313 314
f 313 315 314
f 313 248 316
f 315 313 317
f 317 313 316
f 317 316 287
f 318 315 317
f 285 286 250
f 316 248 172
f 287 316 172
f 317 319 318
f 317 287 319
f 320 288 319
f 320 319 250
f 250 319 287
f 250 286 320
f 286 247 320
f 248 321 254
f 322 321 248
f 320 247 288
f 323 324 254
f 323 325 324
f 326 327 328
f 328 327 290
f 329 330 328
f 329 328 291
f 291 328 290
f 254 324 298
f 258 254 298
f 327 331 290
f 332 327 326
f 332 333 327
f 333 331 327
f 334 329 335
f 334 333 329
f 330 329 332
f 332 329 333
f 291 335 329
f 336 325 337
f 324 325 336
f 338 333 334
f 331 333 338
f 339 268 290
f 331 339 290
f 340 336 337
f 324 336 341
f 298 324 299
f 268 342 262
f 339 343 268
f 324 341 344
f 299 324 344
f 269 299 344
f 266 299 269
f 300 345 346
f 296 300 346
f 343 342 268
f 347 197 272
f 272 348 347
f 300 349 345
f 349 300 301
f 350 262 342
f 342 343 351
f 272 352 348
f 353 347 354
f 354 347 348
f 336 355 341
f 344 341 356
f 356 341 355
f 269 344 357
f 358 345 349
f 262 359 306
f 360 361 262
f 350 360 262
f 362 342 363
f 362 350 342
f 352 272 364
f 353 354 365
f 365 354 348
f 344 356 366
f 357 344 366
f 367 269 357
f 269 367 270
f 349 368 358
f 368 349 369
f 349 301 369
f 304 369 301
f 262 370 359
f 361 370 262
f 371 360 350
f 272 219 364
f 219 308 364
f 308 352 364
f 365 348 352
f 355 372 356
f 366 356 372
f 279 367 357
f 367 279 270
f 368 373 374
f 368 369 373
f 369 304 373
f 303 307 304
f 307 373 304
f 305 307 303
f 305 302 375
f 307 305 375
f 375 302 376
f 376 302 377
f 302 306 377
f 377 306 378
f 379 378 306
f 359 379 306
f 360 380 361
f 371 380 360
f 357 366 372
f 279 357 381
f 274 223 382
f 383 384 385
f 383 386 230
f 385 386 383
f 374 230 386
f 374 373 230
f 307 230 373
f 376 309 375
f 377 387 376
f 387 309 376
f 378 387 377
f 379 388 378
f 389 370 361
f 352 308 390
f 372 391 357
f 381 357 391
f 281 382 223
f 274 382 384
f 159 274 384
f 384 383 159
f 230 159 383
f 277 307 375
f 282 277 375
f 309 282 375
f 378 392 387
f 393 388 394
f 393 392 388
f 392 378 388
f 379 394 388
f 359 394 379
f 365 352 395
f 395 352 390
f 278 279 381
f 280 382 281
f 240 309 387
f 392 240 387
f 240 393 310
f 240 392 393
f 308 235 390
f 396 382 280
f 395 390 397
f 397 398 395
f 310 399 311
f 390 235 283
f 280 278 400
f 311 399 312
f 401 397 402
f 402 397 390
f 283 284 403
f 390 283 403
f 402 390 403
f 314 315 248
f 319 404 318
f 404 319 288
f 254 405 323
f 406 407 408
f 409 406 408
f 407 326 328
f 407 328 408
f 408 328 330
f 410 408 330
f 289 293 288
f 411 412 413
f 411 406 409
f 412 411 409
f 407 406 414
f 326 415 332
f 326 407 415
f 407 414 415
f 330 415 410
f 330 332 415
f 410 415 416
f 334 335 415
f 416 415 335
f 188 335 291
f 417 418 413
f 413 418 411
f 406 411 418
f 415 414 419
f 419 414 406
f 334 419 338
f 415 419 334
f 420 421 422
f 420 417 413
f 421 420 413
f 419 406 418
f 338 419 331
f 197 423 188
f 293 296 346
f 424 425 422
f 426 424 422
f 422 425 420
f 417 420 425
f 418 417 427
f 428 418 427
f 418 428 351
f 351 428 427
f 419 418 339
f 339 418 351
f 331 419 339
f 347 429 197
f 197 429 423
f 345 430 346
f 430 293 346
f 431 293 432
f 432 293 430
f 432 433 431
f 434 435 436
f 436 435 437
f 426 437 435
f 426 435 424
f 417 425 438
f 427 417 438
f 351 427 342
f 339 351 343
f 429 347 353
f 430 345 439
f 432 430 439
f 433 432 440
f 440 432 439
f 433 440 441
f 440 442 441
f 442 443 444
f 441 442 444
f 443 434 436
f 444 443 436
f 435 434 445
f 424 435 446
f 425 424 447
f 447 424 446
f 438 425 447
f 340 355 336
f 345 358 439
f 440 439 448
f 449 440 448
f 442 440 449
f 450 442 449
f 443 442 450
f 451 443 450
f 434 443 451
f 445 434 451
f 435 445 452
f 452 445 451
f 446 435 452
f 447 446 452
f 427 438 380
f 350 427 371
f 363 350 362
f 363 342 350
f 342 427 350
f 358 368 439
f 368 453 439
f 453 448 439
f 454 448 453
f 449 448 455
f 455 448 454
f 456 449 455
f 450 449 456
f 457 450 456
f 451 450 457
f 458 451 457
f 452 451 458
f 380 438 389
f 371 427 380
f 459 454 453
f 459 453 374
f 459 374 386
f 368 374 453
f 455 454 459
f 460 455 459
f 456 455 460
f 461 456 460
f 457 456 461
f 462 457 461
f 463 457 462
f 458 457 464
f 464 457 463
f 465 458 464
f 452 458 465
f 466 452 465
f 467 452 466
f 447 452 370
f 370 452 467
f 438 447 370
f 389 438 370
f 380 389 361
f 463 462 468
f 464 463 468
f 469 464 468
f 469 470 471
f 469 471 464
f 464 471 465
f 466 465 471
f 384 382 385
f 472 471 470
f 394 399 393
f 394 471 399
f 394 466 471
f 471 472 399
f 467 466 394
f 359 467 394
f 370 467 359
f 381 391 473
f 382 396 474
f 310 393 399
f 280 400 396
f 402 403 401
f 161 312 475
f 284 161 475
f 476 322 477
f 477 322 478
f 479 477 478
f 479 478 322
f 322 248 479
f 479 248 315
f 322 476 321
f 404 479 315
f 405 480 481
f 480 405 321
f 321 405 254
f 479 404 482
f 318 404 315
f 481 483 484
f 405 481 484
f 405 483 323
f 405 484 483
f 323 483 325
f 483 485 486
f 483 337 325
f 409 408 410
f 288 487 404
f 487 488 404
f 288 293 487
f 412 489 413
f 412 409 489
f 410 489 409
f 410 416 489
f 489 416 490
f 416 335 490
f 483 486 337
f 421 413 491
f 489 491 413
f 492 489 493
f 490 493 489
f 494 335 188
f 487 495 488
f 293 496 487
f 426 422 497
f 422 421 497
f 491 497 421
f 489 492 491
f 496 498 487
f 293 431 496
f 496 431 498
f 436 437 499
f 500 436 499
f 499 437 501
f 437 426 501
f 501 426 497
f 492 497 491
f 429 365 502
f 503 504 486
f 505 486 504
f 337 486 340
f 340 486 505
f 498 495 487
f 431 506 498
f 433 507 431
f 431 507 506
f 433 441 507
f 507 441 508
f 441 444 508
f 508 444 509
f 444 436 509
f 500 509 436
f 510 509 500
f 499 501 500
f 501 510 500
f 492 511 497
f 353 365 429
f 340 505 512
f 498 513 495
f 513 514 495
f 506 513 498
f 515 513 506
f 507 516 506
f 516 515 506
f 517 516 507
f 508 518 507
f 518 517 507
f 509 518 508
f 519 518 509
f 510 519 509
f 501 520 510
f 497 521 501
f 521 520 501
f 522 521 497
f 511 522 497
f 505 504 523
f 512 505 523
f 340 512 355
f 513 524 514
f 524 525 514
f 526 524 513
f 515 526 513
f 516 526 515
f 517 527 516
f 527 526 516
f 518 527 517
f 462 527 518
f 519 528 518
f 510 528 519
f 529 528 510
f 520 530 510
f 530 529 510
f 521 530 520
f 504 503 531
f 523 504 531
f 512 523 532
f 512 532 355
f 525 386 533
f 524 386 525
f 526 386 524
f 459 386 526
f 460 459 526
f 527 460 526
f 461 460 527
f 462 461 527
f 528 462 518
f 534 462 528
f 529 534 528
f 530 535 529
f 535 534 529
f 535 530 521
f 503 536 537
f 537 531 503
f 355 532 372
f 533 386 538
f 469 468 462
f 534 469 462
f 470 469 534
f 470 534 539
f 539 534 535
f 540 539 535
f 365 395 398
f 541 365 398
f 523 531 532
f 372 473 391
f 385 382 538
f 386 385 538
f 472 470 539
f 540 472 539
f 472 540 399
f 542 532 531
f 473 372 532
f 541 398 543
f 544 365 541
f 543 544 541
f 542 531 545
f 473 278 381
f 543 398 546
f 542 545 532
f 473 532 545
f 398 397 546
f 544 543 547
f 548 400 278
f 397 401 549
f 397 549 546
f 548 278 473
f 401 403 549
f 550 543 549
f 549 543 546
f 547 543 550
f 475 551 284
f 552 550 549
f 403 284 551
f 552 403 551
f 549 403 552
f 553 476 477
f 477 482 553
f 479 482 477
f 321 476 554
f 321 554 480
f 555 482 404
f 556 555 404
f 481 557 485
f 483 481 485
f 493 558 511
f 492 493 511
f 188 423 494
f 429 502 423
f 514 525 559
f 560 521 522
f 535 521 561
f 535 561 562
f 540 535 562
f 536 563 537
f 382 564 538
f 564 533 538
f 399 540 562
f 545 531 537
f 564 382 474
f 396 400 474
f 545 565 473
f 399 475 312
f 566 547 550
f 551 567 552
f 553 482 568
f 481 480 569
f 570 556 404
f 571 557 481
f 486 485 572
f 490 558 493
f 335 494 490
f 490 494 558
f 572 503 486
f 559 488 495
f 573 502 365
f 495 514 559
f 560 522 574
f 573 365 575
f 525 564 559
f 560 561 521
f 576 561 560
f 533 564 525
f 536 577 563
f 563 545 537
f 578 579 399
f 365 544 566
f 544 547 566
f 400 580 474
f 580 564 474
f 400 548 580
f 473 581 548
f 550 582 566
f 550 552 582
f 552 567 583
f 553 568 476
f 584 476 585
f 476 568 585
f 585 568 586
f 568 482 586
f 585 587 584
f 586 588 585
f 588 587 585
f 482 589 586
f 589 588 586
f 554 590 480
f 591 590 554
f 591 554 584
f 476 584 554
f 587 592 584
f 482 555 589
f 555 588 589
f 588 593 587
f 594 593 588
f 595 592 587
f 595 587 593
f 596 594 588
f 555 596 588
f 556 596 555
f 556 570 596
f 596 597 594
f 598 597 596
f 570 598 596
f 570 404 598
f 569 571 481
f 593 594 595
f 594 597 599
f 600 597 598
f 404 600 598
f 601 602 571
f 571 485 557
f 600 603 597
f 604 603 600
f 404 604 600
f 571 602 485
f 404 605 604
f 485 602 572
f 605 603 604
f 404 488 605
f 488 606 605
f 606 603 605
f 558 494 607
f 522 511 558
f 423 502 573
f 503 572 536
f 522 558 607
f 608 572 602
f 559 609 488
f 610 572 608
f 536 572 577
f 576 560 574
f 576 574 561
f 561 574 562
f 574 522 611
f 572 610 577
f 609 559 612
f 574 578 562
f 575 365 566
f 559 564 612
f 578 399 562
f 613 578 574
f 614 613 574
f 577 610 615
f 577 615 563
f 616 613 614
f 578 613 616
f 617 615 610
f 563 615 545
f 548 564 580
f 578 616 579
f 545 615 565
f 565 618 473
f 579 619 399
f 566 582 620
f 620 621 566
f 473 618 581
f 581 622 548
f 582 623 621
f 582 621 620
f 624 622 581
f 582 552 623
f 552 583 623
f 625 583 567
f 592 590 591
f 480 590 626
f 584 592 591
f 571 569 601
f 594 599 595
f 627 602 601
f 603 599 597
f 602 628 608
f 609 612 629
f 629 612 630
f 612 631 630
f 574 611 632
f 575 566 621
f 608 617 610
f 612 633 631
f 564 633 612
f 574 632 614
f 614 634 616
f 564 548 635
f 616 636 579
f 637 548 622
f 619 475 399
f 551 475 619
f 583 625 623
f 590 592 638
f 626 590 639
f 590 638 639
f 639 638 640
f 592 640 638
f 641 626 639
f 640 642 639
f 642 641 639
f 640 592 642
f 626 643 480
f 644 643 626
f 641 644 626
f 592 595 642
f 641 645 644
f 645 643 644
f 595 599 642
f 646 643 645
f 627 601 569
f 641 647 645
f 599 641 642
f 627 569 480
f 645 647 646
f 599 648 641
f 641 648 647
f 599 649 648
f 599 650 649
f 599 651 650
f 603 606 599
f 599 606 651
f 606 652 651
f 494 423 653
f 649 650 651
f 628 602 627
f 488 654 606
f 654 655 606
f 423 573 656
f 657 423 656
f 654 658 655
f 488 609 654
f 573 575 656
f 652 606 659
f 655 659 606
f 609 629 654
f 522 607 660
f 661 660 607
f 654 630 658
f 654 629 630
f 611 522 660
f 662 657 656
f 628 663 608
f 664 659 655
f 665 659 664
f 658 666 655
f 630 631 666
f 630 666 658
f 611 667 632
f 660 668 611
f 661 669 660
f 656 670 662
f 670 656 575
f 608 663 617
f 635 665 664
f 671 665 635
f 655 666 664
f 666 635 664
f 631 633 666
f 668 667 611
f 660 669 668
f 621 670 575
f 671 635 672
f 633 564 635
f 666 633 635
f 632 673 634
f 614 632 634
f 667 673 632
f 674 673 667
f 668 674 667
f 634 673 616
f 636 616 673
f 674 619 673
f 675 674 668
f 676 668 669
f 675 668 676
f 636 673 579
f 619 579 673
f 675 619 674
f 677 675 676
f 677 619 675
f 617 678 565
f 617 565 615
f 618 565 679
f 621 623 625
f 678 680 565
f 624 637 622
f 679 565 680
f 551 619 681
f 567 551 681
f 581 618 682
f 624 581 682
f 618 679 683
f 683 682 684
f 683 684 618
f 682 618 684
f 643 646 685
f 643 685 686
f 686 480 643
f 646 687 688
f 647 687 646
f 647 648 687
f 607 494 689
f 649 651 690
f 691 423 657
f 692 607 689
f 657 662 691
f 692 661 607
f 628 627 663
f 659 665 693
f 669 692 694
f 692 669 661
f 627 695 663
f 665 671 693
f 693 671 696
f 696 671 672
f 669 694 676
f 694 697 676
f 676 697 698
f 677 676 698
f 670 621 699
f 548 637 700
f 677 698 701
f 619 677 701
f 702 619 701
f 679 680 703
f 679 703 683
f 646 704 685
f 685 704 705
f 627 480 686
f 648 690 687
f 690 648 649
f 653 706 494
f 494 707 689
f 651 708 690
f 691 653 423
f 708 651 709
f 691 710 711
f 662 710 691
f 652 712 651
f 659 712 652
f 659 693 712
f 696 713 714
f 672 713 696
f 662 670 715
f 672 716 717
f 635 716 672
f 717 713 672
f 715 670 699
f 548 716 635
f 698 697 718
f 718 701 698
f 663 678 617
f 719 678 663
f 716 548 700
f 678 719 680
f 637 624 720
f 720 700 637
f 621 721 699
f 703 680 683
f 567 681 722
f 705 723 685
f 723 705 704
f 704 724 723
f 646 688 704
f 686 685 723
f 704 688 724
f 724 725 723
f 688 687 724
f 686 723 726
f 727 726 723
f 725 727 723
f 728 725 724
f 687 728 724
f 725 728 729
f 686 730 627
f 687 690 728
f 707 706 653
f 708 728 690
f 706 707 494
f 708 731 728
f 707 732 689
f 691 711 653
f 731 733 728
f 709 731 708
f 651 712 709
f 692 689 734
f 732 734 689
f 735 707 736
f 737 731 709
f 709 738 737
f 739 738 709
f 712 740 709
f 709 740 739
f 735 734 732
f 707 735 732
f 627 741 695
f 742 731 737
f 739 737 738
f 740 743 739
f 712 743 740
f 734 744 692
f 745 710 662
f 737 746 742
f 747 746 737
f 743 747 737
f 739 743 737
f 693 696 743
f 712 693 743
f 748 734 735
f 743 749 747
f 692 750 694
f 744 751 692
f 751 750 692
f 752 751 744
f 734 753 744
f 753 752 744
f 748 753 734
f 745 662 715
f 754 755 742
f 742 746 754
f 747 756 746
f 756 754 746
f 749 756 747
f 743 717 749
f 714 717 743
f 696 714 743
f 694 750 697
f 752 750 751
f 756 757 754
f 757 758 759
f 757 756 758
f 756 749 758
f 717 716 758
f 717 758 749
f 713 717 714
f 750 760 697
f 760 761 697
f 752 760 750
f 748 762 753
f 762 752 753
f 763 762 748
f 695 764 663
f 716 759 758
f 697 761 718
f 760 718 761
f 701 718 760
f 765 760 752
f 702 765 752
f 762 702 752
f 763 766 762
f 766 702 762
f 720 767 700
f 759 700 767
f 759 716 700
f 701 760 765
f 702 701 765
f 766 619 702
f 721 621 625
f 624 767 720
f 766 681 619
f 722 681 766
f 722 768 567
f 768 625 567
f 719 769 680
f 683 680 769
f 769 770 683
f 682 771 624
f 771 772 624
f 682 683 770
f 771 682 770
f 653 773 707
f 653 774 773
f 653 775 774
f 653 776 775
f 730 777 627
f 653 711 776
f 777 741 627
f 778 710 745
f 741 779 695
f 742 755 731
f 695 779 764
f 763 780 766
f 769 663 764
f 759 767 781
f 719 663 769
f 767 624 772
f 768 722 782
f 686 783 730
f 783 686 784
f 726 784 686
f 727 785 726
f 785 786 726
f 729 785 727
f 725 729 727
f 787 784 726
f 726 786 787
f 775 788 789
f 775 790 791
f 788 775 791
f 786 792 787
f 773 793 707
f 793 773 794
f 794 773 774
f 775 789 774
f 774 789 794
f 790 775 795
f 795 775 776
f 777 730 783
f 796 783 784
f 785 797 786
f 798 799 729
f 707 793 800
f 801 795 776
f 802 795 801
f 790 795 802
f 783 741 777
f 729 728 798
f 707 800 736
f 711 801 776
f 802 801 711
f 803 802 711
f 796 804 783
f 728 733 798
f 803 711 710
f 804 741 783
f 805 804 796
f 733 806 798
f 806 807 798
f 733 731 806
f 808 800 793
f 809 802 803
f 736 810 735
f 810 811 735
f 800 812 736
f 808 812 800
f 778 803 710
f 813 809 814
f 731 815 806
f 735 811 748
f 812 816 736
f 731 755 815
f 748 811 763
f 810 763 811
f 736 817 810
f 816 817 736
f 818 812 808
f 745 819 778
f 819 803 778
f 820 803 819
f 809 803 820
f 814 809 820
f 821 813 814
f 755 822 815
f 823 822 755
f 810 824 763
f 817 824 810
f 816 825 817
f 826 812 818
f 819 745 827
f 820 819 827
f 814 820 821
f 741 828 779
f 804 828 741
f 829 828 804
f 822 830 831
f 822 823 830
f 755 830 823
f 754 830 755
f 754 757 830
f 824 780 763
f 817 780 824
f 825 780 817
f 816 812 826
f 745 715 827
f 779 828 764
f 832 831 830
f 830 757 832
f 759 832 757
f 825 833 780
f 834 816 826
f 825 816 834
f 715 699 827
f 821 820 835
f 835 836 821
f 759 781 832
f 832 781 837
f 833 766 780
f 820 827 835
f 829 764 828
f 837 781 838
f 838 781 839
f 825 840 833
f 840 766 833
f 834 841 825
f 841 840 825
f 834 842 841
f 699 721 827
f 827 721 843
f 843 835 827
f 838 839 844
f 844 837 838
f 841 845 840
f 845 766 840
f 842 845 841
f 767 772 839
f 767 839 781
f 845 722 766
f 782 845 842
f 846 843 721
f 782 722 845
f 721 625 846
f 847 844 839
f 772 847 839
f 770 769 848
f 849 770 848
f 848 850 849
f 771 770 849
f 772 771 851
f 852 772 851
f 850 853 854
f 850 854 849
f 851 771 849
f 853 849 854
f 851 849 853
f 852 851 855
f 791 856 788
f 791 857 856
f 857 791 790
f 787 858 784
f 787 792 858
f 859 786 797
f 789 860 794
f 860 789 788
f 785 859 797
f 729 859 785
f 729 861 859
f 799 861 729
f 862 799 798
f 863 794 860
f 864 790 802
f 796 865 866
f 865 796 784
f 798 807 862
f 802 809 864
f 863 793 794
f 796 866 805
f 867 808 793
f 806 868 869
f 815 868 806
f 813 821 870
f 805 871 804
f 818 808 826
f 870 821 836
f 804 871 829
f 822 831 815
f 826 872 834
f 832 837 873
f 872 842 834
f 847 837 844
f 782 842 874
f 782 874 768
f 625 768 846
f 769 764 875
f 875 848 769
f 851 853 855
f 876 857 790
f 792 786 859
f 860 856 877
f 856 860 788
f 790 864 876
f 799 878 861
f 878 799 862
f 877 863 860
f 867 863 877
f 865 879 880
f 866 865 880
f 858 865 784
f 879 865 858
f 880 881 866
f 870 864 809
f 881 805 866
f 869 807 806
f 793 863 867
f 813 870 809
f 815 869 868
f 867 826 808
f 869 815 831
f 882 829 871
f 831 832 873
f 835 843 836
f 829 882 764
f 837 883 873
f 884 883 837
f 885 874 842
f 846 886 843
f 884 837 847
f 768 874 887
f 847 772 852
f 888 889 848
f 848 889 890
f 850 848 890
f 890 853 850
f 853 890 855
f 891 892 893
f 892 891 894
f 891 895 894
f 894 895 896
f 891 893 897
f 895 891 898
f 896 895 899
f 899 895 898
f 900 896 901
f 901 896 899
f 902 891 903
f 898 891 902
f 904 898 902
f 899 898 904
f 901 899 905
f 905 899 904
f 900 901 906
f 906 901 905
f 891 897 877
f 907 904 902
f 905 904 907
f 906 905 908
f 909 906 908
f 903 891 856
f 907 902 903
f 908 905 907
f 909 908 907
f 909 910 906
f 911 912 913
f 911 914 912
f 915 912 914
f 916 917 915
f 877 856 891
f 918 903 876
f 907 903 918
f 909 907 919
f 911 913 920
f 921 911 920
f 914 911 921
f 916 915 922
f 903 856 857
f 876 903 857
f 907 918 923
f 919 907 923
f 924 913 925
f 920 913 924
f 926 921 920
f 914 921 926
f 858 914 926
f 915 914 858
f 922 915 858
f 792 922 858
f 859 922 792
f 927 916 862
f 864 918 876
f 928 918 864
f 923 918 928
f 929 923 928
f 919 923 929
f 858 926 930
f 861 922 859
f 916 922 861
f 878 916 861
f 862 916 878
f 807 927 862
f 931 927 932
f 932 927 807
f 931 932 933
f 934 928 864
f 929 928 934
f 926 920 935
f 935 920 936
f 937 926 935
f 879 937 880
f 879 930 937
f 930 926 937
f 858 930 879
f 938 934 864
f 929 934 938
f 936 920 939
f 935 936 939
f 937 935 881
f 937 881 880
f 940 933 932
f 870 941 864
f 941 938 864
f 929 938 941
f 919 929 942
f 943 919 942
f 943 909 919
f 920 924 939
f 935 939 944
f 881 935 944
f 881 944 805
f 869 932 807
f 940 932 869
f 929 941 942
f 942 941 870
f 939 924 945
f 943 942 870
f 944 939 945
f 946 826 867
f 943 870 947
f 805 944 871
f 831 940 869
f 870 836 947
f 944 945 948
f 826 946 872
f 947 836 949
f 943 947 950
f 950 951 943
f 882 944 948
f 871 944 882
f 946 952 872
f 947 949 950
f 951 950 953
f 836 843 949
f 954 950 886
f 886 950 949
f 953 950 954
f 872 952 842
f 885 842 952
f 843 886 949
f 885 952 955
f 954 886 956
f 957 882 948
f 882 957 764
f 847 883 884
f 847 958 883
f 874 885 887
f 948 959 960
f 764 957 960
f 957 948 960
f 764 960 875
f 958 847 852
f 848 875 961
f 961 888 848
f 855 890 889
f 962 852 855
f 894 896 900
f 963 900 906
f 963 906 910
f 912 917 964
f 917 912 915
f 910 909 965
f 913 964 925
f 964 913 912
f 925 966 924
f 916 927 967
f 933 968 931
f 931 968 927
f 877 969 867
f 968 933 940
f 867 969 970
f 924 966 945
f 970 946 867
f 909 943 965
f 971 955 946
f 946 955 952
f 953 954 951
f 972 873 883
f 973 959 948
f 883 958 974
f 974 958 975
f 846 956 886
f 976 960 959
f 768 887 846
f 975 958 852
f 977 852 962
f 889 978 855
f 979 980 981
f 892 982 983
f 894 982 892
f 894 984 982
f 900 984 894
f 981 985 979
f 986 979 985
f 897 983 987
f 983 897 892
f 963 984 900
f 988 989 990
f 989 988 981
f 991 985 981
f 986 985 991
f 893 892 897
f 992 986 991
f 992 979 986
f 988 990 917
f 981 988 993
f 993 988 916
f 991 981 993
f 994 991 993
f 992 991 994
f 995 996 963
f 997 966 964
f 916 988 917
f 994 993 916
f 992 994 967
f 967 994 916
f 897 969 877
f 963 910 965
f 995 963 965
f 917 990 964
f 998 966 997
f 964 966 925
f 999 992 967
f 999 967 1000
f 967 927 968
f 968 1000 967
f 1001 1002 999
f 1003 998 997
f 968 940 1000
f 1004 998 1003
f 1000 940 1005
f 999 1000 1005
f 1001 999 1005
f 1006 998 1004
f 966 998 1006
f 1001 1005 940
f 965 943 1007
f 1006 1004 1008
f 966 1006 945
f 965 1007 1009
f 1010 1006 1008
f 945 1006 1010
f 1011 1001 940
f 970 971 946
f 1007 943 1012
f 1013 1010 1008
f 1011 940 831
f 1014 1011 831
f 1012 943 1015
f 1016 1009 1007
f 1016 1007 1015
f 1015 1007 1012
f 973 1010 1013
f 873 1014 831
f 972 1014 873
f 943 951 1015
f 1017 973 1013
f 945 1010 973
f 945 973 948
f 951 954 1015
f 1016 1015 1018
f 1019 973 1017
f 954 1018 1015
f 1019 1020 973
f 974 972 883
f 956 1021 954
f 1022 1020 1019
f 1023 972 974
f 955 1024 885
f 973 1020 1025
f 959 973 1025
f 1026 1023 974
f 885 1024 1027
f 1027 887 885
f 956 846 1021
f 1028 1020 1022
f 975 1026 974
f 846 887 1029
f 1020 1028 1030
f 1030 1028 1025
f 1030 1025 1020
f 976 959 1025
f 976 875 960
f 976 1025 1031
f 875 976 1031
f 1031 1025 1032
f 1032 1033 1031
f 1034 975 852
f 1033 1035 1031
f 1036 1031 1035
f 875 1031 1036
f 1037 875 1036
f 961 875 1037
f 961 1037 888
f 1036 1038 1037
f 888 1037 1038
f 889 888 1038
f 1034 852 977
f 978 962 855
f 979 1039 980
f 983 1040 987
f 983 1041 1040
f 981 980 989
f 996 984 963
f 1042 990 989
f 897 987 969
f 987 1043 969
f 1044 1045 1046
f 997 964 1047
f 990 1048 964
f 1047 1003 997
f 995 965 1009
f 1004 1049 1008
f 1016 1018 1009
f 1013 1008 1017
f 1008 1022 1017
f 954 1021 1018
f 1050 972 1023
f 1019 1017 1022
f 955 1051 1024
f 887 1027 1029
f 846 1029 1021
f 1025 1028 1052
f 1032 1025 1052
f 1032 1052 1053
f 1033 1032 1053
f 1053 1035 1033
f 1036 1035 1053
f 889 1038 1036
f 889 1036 978
f 1054 1055 1056
f 1057 1054 1056
f 1056 1055 1058
f 1059 1058 1055
f 1060 1061 1054
f 1054 1061 1062
f 1062 1061 1063
f 1055 1054 1062
f 1061 1060 1064
f 1063 1061 1064
f 1062 1063 1064
f 1055 1062 1065
f 1059 1055 1066
f 1066 1055 1065
f 1064 1060 1067
f 1062 1064 1067
f 1065 1062 1067
f 1066 1065 1068
f 1069 1066 1068
f 1070 1060 1071
f 1039 1060 1070
f 1067 1060 1039
f 1065 1067 1072
f 1073 1074 1075
f 1060 1074 1071
f 1076 1067 1039
f 1072 1067 1076
f 1068 1065 1072
f 1077 1074 1073
f 1071 1074 989
f 1070 1071 980
f 1039 1070 980
f 1072 1076 1078
f 1079 1072 1078
f 1068 1072 1069
f 1069 1072 1079
f 1040 1080 987
f 1080 1040 1081
f 1040 1041 1081
f 1041 983 982
f 982 984 1082
f 1083 1077 1084
f 1077 1083 1085
f 1074 1077 1085
f 989 1074 1086
f 980 1071 989
f 979 1076 1039
f 1041 1080 1081
f 1082 1041 982
f 984 1087 1082
f 1088 1085 1089
f 1084 1089 1085
f 1084 1085 1083
f 1074 1085 990
f 1074 990 1086
f 979 992 1076
f 1090 1076 992
f 1078 1076 1090
f 1069 1079 1091
f 1091 1066 1069
f 987 1080 1092
f 1093 1080 1041
f 1094 1093 1041
f 1095 1094 1041
f 1082 1095 1041
f 1087 1095 1082
f 1044 1048 1096
f 1096 1048 1088
f 1085 1088 1048
f 1042 1097 990
f 1042 1086 1097
f 989 1086 1042
f 1078 1090 992
f 1091 1079 1098
f 1099 1066 1091
f 1093 1092 1080
f 1087 1100 1095
f 984 1101 1087
f 996 995 984
f 1044 1096 1045
f 1045 1096 1102
f 990 1085 1048
f 1097 1086 990
f 999 1078 992
f 999 1098 1078
f 1098 1079 1078
f 1091 1098 1103
f 1104 1099 1091
f 1104 1091 1103
f 1092 1043 987
f 1093 1105 1092
f 1100 1106 1095
f 1106 1107 1095
f 1087 1106 1100
f 984 995 1101
f 1108 1046 1045
f 1108 1045 1102
f 1046 1048 1044
f 1046 1108 1048
f 1047 1048 1108
f 964 1048 1047
f 999 1002 1098
f 1103 1098 1002
f 1043 1109 969
f 1109 1092 1105
f 1109 1043 1092
f 1093 1110 1111
f 1094 1110 1093
f 1112 1110 1094
f 1094 1095 1112
f 1107 1112 1095
f 1087 1113 1106
f 1101 1114 1087
f 995 1115 1101
f 1115 1114 1101
f 1108 1102 1116
f 1116 1047 1108
f 1116 1003 1047
f 1117 1112 1107
f 1087 1114 1113
f 1115 1118 1114
f 995 1118 1115
f 1119 1117 1107
f 1106 1113 1107
f 1113 1119 1107
f 1118 1120 1114
f 969 1109 1121
f 1113 1117 1119
f 1120 1113 1114
f 1113 1122 1117
f 1123 1122 1113
f 1120 1123 1113
f 1118 1123 1120
f 1123 1118 1124
f 1118 995 1124
f 969 1121 970
f 1124 995 1125
f 995 1009 1125
f 1003 1116 1004
f 1002 1001 1126
f 1126 1001 1127
f 1116 1128 1004
f 1004 1128 1049
f 1011 1127 1001
f 1126 1127 1011
f 1014 1126 1011
f 1129 1126 1014
f 1129 1014 1130
f 1049 1128 1008
f 1128 1116 1022
f 1130 1014 1131
f 1132 1125 1009
f 1133 971 970
f 1008 1128 1022
f 1014 972 1131
f 1133 1134 971
f 1050 1131 972
f 1050 1023 1131
f 1023 1130 1131
f 1051 955 971
f 1134 1135 971
f 1135 1051 971
f 1026 1130 1023
f 1136 1137 1134
f 1137 1135 1134
f 1135 1027 1051
f 1137 1138 1135
f 1138 1027 1135
f 1029 1138 1137
f 1027 1024 1051
f 1029 1027 1138
f 1052 1028 1053
f 1036 1053 1139
f 1036 1139 1140
f 978 1036 1140
f 1056 1058 1057
f 1059 1141 1058
f 1054 1057 1142
f 1060 1054 1142
f 1059 1066 1141
f 1141 1066 1143
f 1074 1060 1142
f 1077 1073 1144
f 1075 1144 1073
f 1077 1144 1084
f 1096 1145 1146
f 1147 1096 1148
f 1148 1088 1089
f 1148 1089 1147
f 1147 1089 1149
f 1150 1149 1089
f 1089 1084 1144
f 1089 1144 1150
f 1150 1144 1151
f 1088 1148 1096
f 1150 1152 1149
f 1151 1152 1150
f 1144 1152 1151
f 1153 1152 1144
f 1096 1146 1102
f 1099 1104 1103
f 1093 1111 1105
f 1146 1154 1102
f 1112 1117 1110
f 1109 1155 1121
f 1123 1156 1157
f 1124 1156 1123
f 1158 1124 1125
f 1121 1155 970
f 1155 1133 970
f 1018 1159 1132
f 1132 1009 1018
f 1018 1021 1159
f 1133 1160 1136
f 1134 1133 1136
f 1021 1029 1159
f 1029 1137 1161
f 1130 1026 1162
f 1028 1022 1163
f 1028 1164 1053
f 975 1034 1165
f 1053 1166 1139
f 1167 1139 1166
f 1168 1139 1167
f 1034 1169 1165
f 1169 1034 977
f 977 962 1169
f 978 1140 1170
f 978 1171 962
f 1058 1172 1057
f 1058 1141 1172
f 1173 1144 1174
f 1143 1066 1099
f 1147 1175 1176
f 1147 1173 1175
f 1176 1096 1147
f 1173 1147 1149
f 1176 1145 1096
f 1173 1149 1153
f 1144 1173 1153
f 1145 1154 1146
f 1153 1149 1152
f 1105 1111 1177
f 1177 1178 1179
f 1111 1178 1177
f 1110 1180 1111
f 1111 1180 1178
f 1110 1117 1122
f 1109 1181 1155
f 1181 1182 1155
f 1123 1183 1122
f 1123 1157 1183
f 1154 1116 1102
f 1184 1116 1154
f 1156 1124 1158
f 1185 1156 1158
f 1002 1126 1129
f 1158 1186 1185
f 1125 1186 1158
f 1125 1132 1186
f 1155 1187 1133
f 1130 1162 1129
f 1187 1160 1133
f 1159 1188 1132
f 1160 1137 1136
f 1159 1029 1189
f 1137 1160 1190
f 1137 1190 1161
f 1026 975 1191
f 1028 1163 1164
f 1164 1166 1053
f 1192 1167 1166
f 1192 1168 1167
f 1168 1140 1139
f 1140 1168 1170
f 978 1170 1171
f 1172 1193 1057
f 1141 1143 1172
f 1194 1172 1195
f 1195 1172 1143
f 1196 1194 1195
f 1195 1197 1198
f 1196 1195 1198
f 1198 1197 1199
f 1197 1195 1200
f 1200 1195 1143
f 1200 1199 1197
f 1201 1142 1202
f 1142 1201 1174
f 1174 1203 1204
f 1201 1203 1174
f 1075 1142 1174
f 1074 1142 1075
f 1204 1173 1174
f 1204 1175 1173
f 1075 1174 1144
f 1099 1200 1143
f 1176 1205 1145
f 1145 1205 1154
f 1176 1206 1205
f 1103 1200 1099
f 1206 1154 1205
f 1200 1103 1002
f 1105 1177 1179
f 1105 1179 1207
f 1207 1179 1208
f 1179 1178 1208
f 1184 1154 1206
f 1105 1209 1109
f 1105 1207 1209
f 1209 1207 1210
f 1208 1211 1207
f 1211 1210 1207
f 1178 1212 1208
f 1212 1211 1208
f 1180 1212 1178
f 1110 1213 1180
f 1213 1212 1180
f 1109 1209 1181
f 1211 1212 1210
f 1213 1214 1212
f 1110 1214 1213
f 1210 1215 1209
f 1212 1215 1210
f 1214 1216 1212
f 1110 1122 1214
f 1200 1002 1129
f 1216 1215 1212
f 1214 1217 1216
f 1122 1218 1214
f 1218 1217 1214
f 1218 1122 1183
f 1129 1219 1200
f 1209 1182 1181
f 1183 1217 1218
f 1157 1220 1183
f 1182 1221 1155
f 1221 1182 1222
f 1209 1222 1182
f 1215 1223 1209
f 1217 1215 1216
f 1183 1224 1217
f 1225 1224 1183
f 1220 1225 1183
f 1157 1226 1220
f 1157 1156 1226
f 1155 1221 1222
f 1227 1223 1215
f 1217 1227 1215
f 1224 1228 1217
f 1229 1224 1225
f 1220 1229 1225
f 1226 1230 1220
f 1156 1230 1226
f 1022 1116 1184
f 1231 1232 1129
f 1222 1233 1187
f 1155 1222 1187
f 1209 1233 1222
f 1228 1227 1217
f 1229 1234 1224
f 1230 1229 1220
f 1156 1235 1230
f 1156 1185 1235
f 1223 1233 1209
f 1234 1228 1224
f 1230 1236 1229
f 1235 1237 1230
f 1237 1236 1230
f 1185 1237 1235
f 1186 1132 1237
f 1185 1186 1237
f 1162 1231 1129
f 1227 1233 1223
f 1229 1228 1234
f 1236 1238 1229
f 1237 1238 1236
f 1184 1239 1022
f 1026 1232 1231
f 1162 1026 1231
f 1240 1187 1233
f 1227 1241 1233
f 1242 1228 1229
f 1238 1243 1229
f 1243 1242 1229
f 1237 1244 1238
f 1244 1243 1238
f 1132 1188 1244
f 1132 1244 1237
f 1241 1245 1233
f 1245 1240 1233
f 1227 1245 1241
f 1243 1244 1242
f 1244 1228 1242
f 1187 1190 1160
f 1240 1246 1187
f 1246 1190 1187
f 1245 1246 1240
f 1161 1246 1245
f 1227 1161 1245
f 1228 1189 1227
f 1189 1161 1227
f 1247 1189 1228
f 1228 1159 1247
f 1244 1159 1228
f 1188 1159 1244
f 1248 1249 1239
f 1250 1161 1189
f 1189 1029 1250
f 1159 1189 1247
f 1239 1249 1022
f 1161 1190 1246
f 1029 1161 1250
f 1248 1251 1249
f 1252 1251 1248
f 1252 1248 1253
f 1022 1249 1163
f 1252 1254 1251
f 1251 1163 1249
f 1254 1255 1251
f 1252 1255 1254
f 1256 1252 1253
f 1256 1257 1252
f 1252 1257 1255
f 1255 1163 1251
f 1257 1258 1255
f 1258 1259 1255
f 1259 1163 1255
f 1260 1259 1258
f 1257 1260 1258
f 1256 1260 1257
f 975 1165 1191
f 1164 1163 1260
f 1260 1163 1259
f 1164 1260 1166
f 1166 1260 1192
f 1168 1192 1260
f 1256 1168 1260
f 1256 1261 1168
f 1165 1169 1191
f 1261 1170 1168
f 1262 1170 1261
f 1263 1170 1262
f 1171 1170 1263
f 1057 1193 1264
f 1172 1265 1193
f 1194 1265 1172
f 1265 1194 1196
f 1266 1265 1196
f 1057 1264 1142
f 1198 1199 1196
f 1196 1199 1266
f 1142 1267 1268
f 1201 1202 1269
f 1202 1268 1269
f 1142 1268 1202
f 1199 1200 1266
f 1269 1270 1201
f 1204 1203 1270
f 1270 1203 1201
f 1270 1175 1204
f 1206 1176 1184
f 1129 1232 1219
f 1219 1232 1271
f 1272 1239 1184
f 1232 1026 1271
f 1271 1026 1273
f 1248 1239 1253
f 1273 1026 1191
f 1274 1261 1256
f 1262 1261 1275
f 1262 1275 1276
f 1263 1262 1276
f 1277 1171 1263
f 1278 1264 1279
f 1280 1193 1281
f 1193 1265 1282
f 1281 1193 1282
f 1265 1266 1282
f 1142 1264 1278
f 1280 1264 1193
f 1281 1283 1284
f 1281 1282 1283
f 1285 1284 1283
f 1282 1285 1283
f 1282 1266 1285
f 1269 1268 1286
f 1268 1267 1286
f 1285 1266 1287
f 1269 1286 1270
f 1175 1286 1267
f 1270 1286 1175
f 1266 1200 1288
f 1287 1266 1288
f 1175 1289 1176
f 1184 1176 1289
f 1219 1271 1200
f 1200 1271 1290
f 1291 1271 1273
f 1272 1253 1239
f 1292 1253 1272
f 1293 1253 1292
f 1273 1191 1294
f 1295 1296 1293
f 1297 1296 1295
f 1253 1293 1256
f 1296 1274 1293
f 1297 1274 1296
f 1256 1293 1274
f 1297 1298 1274
f 1299 1298 1297
f 1300 1299 1297
f 1301 1302 1303
f 1303 1294 1301
f 1191 1169 1294
f 1298 1261 1274
f 1294 1169 1301
f 1275 1261 1298
f 1299 1276 1298
f 1300 1304 1299
f 1305 1306 1300
f 1306 1304 1300
f 1306 1305 1307
f 1299 1304 1276
f 1307 1304 1306
f 1305 1301 1307
f 1301 1304 1307
f 1298 1276 1275
f 1304 1263 1276
f 1301 1263 1304
f 962 1171 1301
f 1169 962 1301
f 1277 1263 1301
f 1277 1301 1171
f 1308 1278 1279
f 1309 1308 1279
f 1278 1310 1142
f 1279 1280 1309
f 1264 1280 1279
f 1281 1284 1280
f 1142 1310 1267
f 1311 1285 1287
f 1175 1312 1289
f 1288 1200 1290
f 1271 1291 1290
f 1295 1293 1292
f 1273 1294 1291
f 1291 1294 1313
f 1294 1314 1313
f 1295 1315 1297
f 1303 1316 1294
f 1305 1300 1317
f 1318 1305 1317
f 1305 1318 1301
f 1308 1309 1319
f 1278 1308 1319
f 1310 1320 1321
f 1278 1320 1310
f 1320 1278 1319
f 1280 1322 1309
f 1280 1323 1322
f 1280 1324 1323
f 1284 1324 1280
f 1284 1325 1324
f 1284 1326 1325
f 1326 1284 1285
f 1311 1326 1285
f 1175 1267 1327
f 1287 1288 1311
f 1312 1175 1327
f 1328 1292 1272
f 1329 1292 1328
f 1291 1330 1290
f 1291 1331 1330
f 1332 1292 1329
f 1291 1313 1331
f 1313 1330 1331
f 1295 1292 1332
f 1315 1295 1332
f 1303 1333 1316
f 1302 1333 1303
f 1309 1322 1319
f 1320 1319 1322
f 1334 1322 1323
f 1335 1267 1336
f 1267 1310 1336
f 1310 1321 1336
f 1336 1321 1337
f 1320 1337 1321
f 1322 1334 1320
f 1338 1334 1323
f 1324 1339 1323
f 1323 1339 1338
f 1324 1325 1339
f 1326 1311 1325
f 1335 1327 1267
f 1336 1327 1335
f 1334 1337 1320
f 1338 1340 1334
f 1339 1341 1338
f 1341 1340 1338
f 1311 1339 1325
f 1337 1327 1336
f 1340 1342 1334
f 1343 1342 1340
f 1341 1343 1340
f 1334 1342 1337
f 1311 1288 1339
f 1341 1344 1343
f 1339 1344 1341
f 1339 1288 1344
f 1337 1345 1327
f 1343 1346 1347
f 1346 1343 1344
f 1288 1346 1344
f 1289 1312 1348
f 1349 1312 1327
f 1348 1184 1289
f 1350 1346 1288
f 1351 1184 1352
f 1353 1288 1290
f 1272 1184 1328
f 1351 1328 1184
f 1328 1351 1354
f 1354 1329 1328
f 1355 1329 1354
f 1356 1329 1355
f 1356 1315 1329
f 1357 1315 1356
f 1332 1329 1315
f 1290 1330 1358
f 1359 1360 1361
f 1361 1362 1359
f 1330 1314 1358
f 1330 1313 1314
f 1363 1364 1365
f 1364 1366 1367
f 1357 1297 1315
f 1368 1369 1364
f 1366 1370 1367
f 1358 1370 1366
f 1314 1370 1358
f 1359 1371 1360
f 1369 1365 1364
f 1367 1368 1364
f 1316 1372 1367
f 1370 1316 1367
f 1371 1357 1360
f 1362 1371 1359
f 1363 1371 1362
f 1368 1365 1369
f 1314 1373 1370
f 1300 1297 1357
f 1300 1357 1371
f 1374 1300 1371
f 1370 1373 1316
f 1314 1294 1373
f 1363 1374 1371
f 1365 1374 1363
f 1368 1375 1365
f 1365 1375 1374
f 1367 1375 1368
f 1372 1376 1367
f 1316 1376 1372
f 1294 1316 1373
f 1377 1300 1374
f 1378 1377 1374
f 1375 1378 1374
f 1379 1375 1367
f 1376 1379 1367
f 1316 1333 1376
f 1378 1380 1377
f 1380 1300 1377
f 1381 1380 1378
f 1375 1381 1378
f 1382 1381 1375
f 1383 1382 1375
f 1379 1376 1375
f 1376 1383 1375
f 1317 1300 1380
f 1381 1317 1380
f 1384 1317 1381
f 1382 1383 1381
f 1383 1384 1381
f 1333 1383 1376
f 1318 1317 1302
f 1302 1317 1384
f 1383 1302 1384
f 1333 1302 1383
f 1301 1318 1302
f 1349 1327 1345
f 1312 1385 1348
f 1385 1312 1349
f 1184 1348 1352
f 1350 1288 1386
f 1288 1353 1386
f 1353 1290 1387
f 1357 1356 1388
f 1290 1389 1390
f 1358 1389 1290
f 1390 1387 1290
f 1360 1357 1388
f 1360 1388 1361
f 1363 1362 1391
f 1362 1361 1391
f 1389 1358 1366
f 1364 1363 1391
f 1364 1391 1392
f 1366 1364 1392
f 1393 1394 1337
f 1342 1393 1337
f 1395 1393 1342
f 1396 1395 1342
f 1343 1396 1342
f 1394 1397 1337
f 1397 1398 1337
f 1393 1397 1394
f 1399 1396 1343
f 1343 1347 1399
f 1345 1337 1398
f 1347 1395 1396
f 1399 1347 1396
f 1398 1400 1345
f 1400 1349 1345
f 1346 1350 1347
f 1385 1349 1401
f 1349 1402 1401
f 1397 1400 1398
f 1348 1385 1352
f 1352 1385 1403
f 1401 1403 1385
f 1349 1404 1402
f 1403 1405 1352
f 1401 1405 1403
f 1349 1406 1404
f 1400 1406 1349
f 1397 1407 1400
f 1391 1397 1393
f 1393 1395 1391
f 1408 1347 1350
f 1404 1409 1402
f 1406 1409 1404
f 1347 1391 1395
f 1405 1351 1352
f 1401 1351 1405
f 1402 1409 1401
f 1409 1351 1401
f 1400 1407 1406
f 1397 1410 1407
f 1391 1410 1397
f 1406 1411 1409
f 1388 1412 1407
f 1410 1388 1407
f 1350 1386 1408
f 1409 1354 1351
f 1411 1354 1409
f 1406 1412 1411
f 1407 1412 1406
f 1411 1413 1354
f 1412 1413 1411
f 1408 1414 1347
f 1413 1415 1354
f 1416 1415 1413
f 1412 1416 1413
f 1417 1391 1347
f 1355 1354 1415
f 1416 1355 1415
f 1412 1355 1416
f 1414 1417 1347
f 1408 1418 1414
f 1386 1418 1408
f 1412 1356 1355
f 1388 1356 1412
f 1386 1353 1418
f 1414 1419 1417
f 1418 1419 1414
f 1353 1420 1418
f 1361 1388 1410
f 1391 1361 1410
f 1418 1421 1419
f 1422 1421 1418
f 1420 1422 1418
f 1420 1423 1422
f 1390 1389 1423
f 1390 1423 1353
f 1353 1423 1420
f 1387 1390 1353
f 1419 1424 1417
f 1421 1425 1419
f 1425 1424 1419
f 1422 1366 1421
f 1366 1425 1421
f 1423 1366 1422
f 1425 1366 1424
f 1389 1366 1423
f 1417 1392 1391
f 1424 1392 1417
f 1366 1392 1424
