# Object 3D file generated by CamiTK
# number of vertices : 770
# number of faces : 1540
v 166.595 189.931 324.917
v 169.654 189.753 324.789
v 167.697 189.545 325.265
v 166.144 189.995 325.379
v 166.323 190.302 324.852
v 165.938 190.278 325.597
v 166.888 190.352 324.355
v 168.402 190.506 323.688
v 169.195 190.542 323.516
v 169.97 190.566 323.586
v 166.146 190.591 325.261
v 166.594 190.725 324.741
v 168.098 191.12 323.908
v 168.972 191.145 323.495
v 169.791 191.169 323.297
v 170.611 191.188 323.343
v 174.681 191.919 325.163
v 172.907 191.854 323.834
v 169.472 192.32 324.285
v 169.625 191.8 323.58
v 170.447 191.837 323.352
v 171.271 191.846 323.31
v 172.097 191.847 323.496
v 173.732 191.878 324.374
v 174.33 192.03 324.665
v 174.661 192.221 324.918
v 171.117 192.471 323.646
v 171.911 192.458 323.57
v 172.697 192.419 323.717
v 173.367 192.325 323.987
v 174.092 192.497 324.559
v 174.672 192.546 325.075
v 175.015 192.345 325.519
v 171.598 193.447 325.307
v 171.746 193.011 324.211
v 173.335 192.9 324.397
v 174.481 192.914 325.358
v 165.461 189.931 328.39
v 166.113 191.059 326.33
v 166.537 191.454 326.561
v 172.749 193.733 325.974
v 174.26 193.44 326.313
v 165.655 189.711 330.39
v 165.369 190.266 328.746
v 165.565 190.199 327.306
v 176.22 192.377 328.398
v 176.395 192.142 329.087
v 175.357 192.922 326.951
v 176.318 192.658 328.744
v 175.972 193.326 328.973
v 166.891 190.338 333.374
v 165.383 190.308 331.002
v 165.411 190.623 330.608
v 176.635 192.128 330.187
v 173.229 194.486 329.773
v 165.663 189.87 331.313
v 165.424 190.008 330.726
v 177.021 192.242 331.598
v 166.176 191.741 332.362
v 166.467 192.778 332.221
v 177.148 193.188 331.899
v 169.196 195.342 334.325
v 174.528 194.894 331.381
v 176.132 194.504 331.88
v 165.583 190.169 331.595
v 166.32 190.832 333.063
v 166.451 191.342 334.063
v 167.038 191.2 335.133
v 167.524 192.873 339.478
v 176.591 191.645 335.333
v 164.173 192.572 335.337
v 165.471 192.468 333.506
v 165.929 191.926 334.056
v 165.963 192.337 332.96
v 177.26 192.019 333.328
v 177.538 192.572 332.848
v 177.972 192.499 333.981
v 178.032 192.344 334.679
v 163.748 192.861 334.759
v 163.361 193.23 334.316
v 165.23 193.043 333.105
v 165.866 192.921 332.803
v 167.901 193.69 331.83
v 177.988 192.884 333.841
v 161.86 194.165 334.506
v 163.199 193.775 333.607
v 163.81 193.849 333.191
v 164.389 193.732 333.091
v 165.74 193.562 332.834
v 166.406 193.495 332.611
v 166.928 194.053 332.868
v 161.654 194.739 333.791
v 161.454 194.433 334.81
v 161.136 194.838 334.437
v 162.273 194.707 333.272
v 162.844 194.487 333.194
v 163.497 194.373 333.079
v 164.141 194.355 333.052
v 165.594 194.217 333.093
v 173.491 195.76 332.883
v 176.788 194.489 332.646
v 177.733 194.748 334.945
v 178.201 193.74 335.18
v 161.538 195.43 333.242
v 160.787 195.175 334.736
v 159.818 196.638 334.886
v 162.049 195.251 333.087
v 162.642 195.121 332.991
v 163.265 195.012 333.045
v 163.839 194.889 333.116
v 164.533 195.066 333.452
v 165.401 194.895 333.606
v 168.24 195.307 334.722
v 160.641 196.249 333.569
v 161.296 196.026 333.15
v 161.886 195.887 332.965
v 162.486 195.759 332.994
v 165.027 196.593 335.558
v 160.02 196.996 333.746
v 159.001 198.004 334.356
v 160.616 196.989 333.148
v 161.138 196.755 333.025
v 161.765 196.567 332.993
v 162.31 196.341 333.055
v 162.383 197.081 333.382
v 170.467 196.371 335.457
v 172.914 196.329 334.065
v 159.938 197.776 333.239
v 160.441 197.592 333.05
v 161.019 197.45 332.943
v 161.638 197.305 333.066
v 159.059 199.251 333.464
v 160.302 198.28 332.978
v 160.912 198.133 332.992
v 158.448 199.754 334.222
v 158.442 198.957 334.949
v 158.322 199.4 334.609
v 159.538 199.086 333.203
v 160.138 198.953 333.046
v 160.551 199.429 333.291
v 159.388 199.72 333.392
v 160.002 199.624 333.297
v 162.447 200.098 335.879
v 158.348 200.11 334.586
v 158.24 200.163 335.167
v 158.725 200.262 334.223
v 159.187 200.179 333.764
v 159.818 200.886 334.487
v 161.193 200.126 334.245
v 158.469 200.433 334.942
v 158.822 200.676 334.848
v 159.568 201.124 334.971
v 160.422 200.798 334.556
v 167.436 209.198 334.228
v 167.825 209.051 334.457
v 167.645 208.815 334.631
v 167.481 209.722 333.918
v 166.523 209.264 334.614
v 166.258 209.739 334.303
v 167.845 209.466 334.291
v 166.848 210.461 333.508
v 166.153 211.215 333.342
v 166.649 211.024 333.335
v 166.995 211.467 333.482
v 167.705 210.725 334.119
v 166.521 211.685 333.283
v 168.019 211.125 335.053
v 163.386 213.654 334.457
v 164.304 214.183 333.243
v 165.067 213.398 333.158
v 165.659 213.247 333.186
v 166.358 212.393 333.346
v 167.01 212.165 333.844
v 166.386 214.283 334.756
v 166.149 213.008 333.359
v 163.591 214.359 333.653
v 165.255 214.554 333.371
v 166.161 213.719 333.772
v 163.599 215.129 333.276
v 164.127 214.895 333.186
v 164.732 214.741 333.218
v 162.182 215.917 333.755
v 162.105 216.723 333.302
v 163.989 215.568 333.239
v 164.517 215.34 333.352
v 165.179 215.292 333.912
v 165.775 215.168 334.664
v 166.158 214.845 335.027
v 159.483 217.736 334.722
v 161.863 217.308 333.226
v 162.46 217.164 333.255
v 162.894 217.669 333.907
v 159.829 218.299 333.729
v 160.276 218.893 333.223
v 161.672 217.958 333.253
v 162.212 217.736 333.369
v 159.726 219.104 333.291
v 162.746 218.331 334.668
v 157.367 220.702 333.709
v 158.919 219.9 333.298
v 159.475 219.684 333.227
v 160.083 219.538 333.257
v 159.833 220.094 333.387
v 158.669 220.473 333.277
v 158.098 220.697 333.363
v 159.287 220.315 333.288
v 154.71 219.802 336.887
v 155.28 222.202 334.638
v 156.577 221.449 333.8
v 157.254 221.445 333.443
v 157.812 221.274 333.41
v 159.046 220.848 333.467
v 159.732 220.773 333.958
v 160.367 220.668 334.686
v 156.491 222.136 333.629
v 157.002 221.967 333.523
v 157.527 221.805 333.502
v 158.142 221.812 333.88
v 159.238 221.704 335.059
v 155.369 222.672 334.633
v 154.646 222.752 336.06
v 155.631 223.06 334.681
v 155.823 222.734 334.16
v 156.285 222.595 333.856
v 156.778 222.434 333.685
v 157.39 222.41 334.003
v 157.637 222.744 335.014
v 156.111 223.022 334.343
v 156.722 222.881 334.203
v 155.76 223.4 335.804
v 178.117 192.431 335.855
v 178.394 193.326 336.247
v 161.506 194.431 335.656
v 160.838 195.163 335.588
v 177.423 195.722 336.858
v 171.641 196.354 334.867
v 176.94 196.025 336.619
v 173.703 197.097 335.348
v 158.29 199.394 335.331
v 158.274 200.202 335.74
v 158.357 200.421 335.513
v 158.693 200.716 335.773
v 159.13 201.307 336.971
v 161.084 200.925 335.195
v 159.617 201.511 335.863
v 168.602 208.58 336.491
v 166.438 207.311 337.796
v 168.461 209.262 335.764
v 168.238 211.36 336.407
v 166.277 214.907 335.765
v 163.721 217.686 335.827
v 157.661 222.869 335.991
v 154.372 223.135 337.409
v 164.28 192.753 336.363
v 177.016 192.019 338.198
v 176.762 192.539 341.013
v 177.607 192.172 337.746
v 178.007 192.38 337.179
v 178.355 193.626 339.423
v 178.136 194.663 340.218
v 160.745 195.65 336.276
v 165.59 194.474 341.206
v 177.772 195.414 337.706
v 159.967 198.193 337.846
v 166.87 196.338 336.467
v 169.273 197.045 337.006
v 166.033 197.254 337.197
v 166.683 196.691 336.903
v 171.888 197.521 336.106
v 176.405 196.665 338.208
v 159.182 197.997 336.307
v 170.352 197.599 336.659
v 173.126 197.989 336.706
v 173.892 198.072 337.415
v 158.513 199.45 336.284
v 171.148 198.265 336.672
v 172.52 198.11 336.632
v 173.795 198.679 338.548
v 159.262 199.041 337.518
v 162.204 198.025 341.451
v 165.435 198.545 338.271
v 171.117 199.704 337.242
v 169.915 200.888 337.651
v 159.25 200.794 338.516
v 159.585 202.754 342.277
v 171.697 200.29 337.935
v 158.808 200.464 336.955
v 171.021 200.337 337.469
v 170.52 200.637 337.494
v 159.071 202.054 338.342
v 160.312 201.841 336.11
v 171.14 201.091 337.911
v 171.672 201.071 338.647
v 159.594 202.292 336.989
v 160.271 202.489 336.792
v 160.982 203.476 338.132
v 170.425 203.121 337.762
v 158.746 202.692 339.21
v 158.958 203.064 338.025
v 159.328 203.679 337.679
v 161.463 203.281 338.673
v 158.138 203.971 338.881
v 158.75 203.883 337.996
v 169.647 203.989 337.519
v 169.071 204.795 337.402
v 170.215 203.645 337.695
v 170.284 204.359 337.984
v 158.609 204.408 338.126
v 159.094 204.321 337.954
v 158.322 204.175 338.387
v 159.498 204.79 338.288
v 168.569 204.283 337.721
v 167.762 205.611 337.7
v 157.421 205.627 339.056
v 157.483 205.545 339.331
v 157.404 205.819 339.32
v 158.297 204.686 338.472
v 157.542 205.552 338.994
v 168.436 205.6 337.326
v 169.115 205.592 337.249
v 169.443 205.976 337.439
v 157.539 205.703 339.002
v 168.462 206.433 337.069
v 168.982 206.204 337.211
v 167.372 207.245 336.95
v 168.214 207.108 336.861
v 169.491 206.668 337.754
v 167.21 208.029 336.125
v 168.009 207.968 336.242
v 168.721 207.767 336.959
v 169.436 208.707 339.188
v 161.81 214.153 337.535
v 165.36 215.965 338.443
v 157.762 217.848 337.408
v 158.831 216.993 337.806
v 156.392 217.925 338.294
v 155.808 218.314 337.713
v 156.301 218.737 337.013
v 153.583 218.492 338.321
v 154.514 221.582 335.923
v 152.721 222.11 337.477
v 152.381 220.981 338.148
v 151.925 221.519 338.787
v 152.207 221.948 338.132
v 152.042 222.51 338.656
v 151.983 222.871 339.212
v 152.516 222.56 337.947
v 153.974 222.389 336.648
v 157.837 222.502 342.419
v 156.612 223.244 337.125
v 152.344 222.969 338.682
v 177.752 192.951 340.908
v 168.672 194.315 343.335
v 171.787 192.733 340.867
v 178.146 193.78 340.781
v 167.343 196.735 337.085
v 164.439 196.336 342.309
v 167.367 197.817 338.143
v 177.296 195.959 339.815
v 166.698 197.962 338.33
v 166.18 198.503 339.085
v 167.148 198.474 339.04
v 167.988 198.359 338.352
v 165.904 198.873 340.273
v 166.541 198.733 340.461
v 167.525 199.43 340.128
v 167.925 199.102 339.026
v 168.698 199.715 338.427
v 163.878 200.731 340.743
v 167.259 200.273 341.063
v 168.6 201.925 338.462
v 174.468 198.645 341.38
v 159.028 202.127 339.89
v 161.684 203.395 339.715
v 164.28 208.652 340.861
v 157.603 205.303 340.194
v 158.773 204.959 338.356
v 157.976 205.422 338.987
v 158.587 206.169 338.85
v 159.173 206.096 339.004
v 158.827 208.565 340.847
v 161.934 202.978 341.357
v 157.66 206.196 339.155
v 157.375 206.282 339.977
v 158.127 206.315 338.905
v 157.565 206.988 339.5
v 156.962 208.673 340.698
v 157.665 209.245 339.581
v 158.196 208.96 339.814
v 169.361 208.876 341.598
v 157.278 208.715 339.835
v 156.861 209.488 340.029
v 156.49 209.841 340.456
v 157.266 209.494 339.581
v 158.561 208.942 340.448
v 156.537 210.423 339.835
v 157.082 210.13 339.603
v 157.49 209.884 339.588
v 157.441 210.589 339.868
v 155.975 211.212 339.924
v 155.827 210.884 340.896
v 155.532 211.386 340.51
v 156.476 211.148 339.523
v 156.906 210.888 339.586
v 155.865 211.977 339.506
v 155.222 211.772 340.768
v 155.013 212.271 340.362
v 156.3 211.742 339.482
v 156.71 211.5 339.54
v 157.119 211.484 340.008
v 155.078 212.827 339.743
v 155.897 213.037 339.475
v 156.655 212.177 339.818
v 157.706 210.779 341.323
v 154.403 213.291 340.83
v 155.038 213.555 339.437
v 155.468 213.297 339.408
v 154.306 214.416 339.709
v 155.183 214.646 339.424
v 155.87 213.752 339.787
v 156.474 213.336 340.872
v 153.684 214.924 341.641
v 153.439 215.432 340.337
v 154.167 215.829 339.169
v 154.772 214.917 339.323
v 153.559 216.02 339.562
v 155.313 215.421 339.672
v 155.658 215.392 340.477
v 152.907 216.48 340.789
v 152.781 216.985 340.276
v 153.564 216.755 339.056
v 153.945 217.259 338.586
v 154.68 216.466 338.886
v 155.382 216.414 339.442
v 155.701 216.136 340.589
v 153.385 217.324 338.957
v 152.923 217.41 339.551
v 154.994 217.646 338.257
v 155.599 217.768 338.312
v 155.913 216.758 340.245
v 155.981 217.234 339.337
v 156.338 217.154 340.757
v 156.885 217.44 339.937
v 151.983 220.261 340.766
v 152.478 219.6 339.326
v 151.696 222.017 340.274
v 151.73 222.547 340.614
v 152.739 223.384 341.032
v 151.88 222.924 340.05
v 152.102 223.217 340.524
v 171.127 193.141 341.92
v 178.122 194.258 340.935
v 177.536 195.623 340.692
v 177.455 194.78 342.661
v 177.469 195.421 341.764
v 175.136 197.997 342.711
v 165.824 198.765 341.564
v 166.394 198.598 341.969
v 166.937 198.972 341.355
v 166.928 199.791 342.129
v 161.287 200.983 342.694
v 164.443 199.869 341.655
v 164.161 200.31 341.273
v 157.287 207.297 341.328
v 159.007 208.193 341.31
v 155.903 210.903 341.668
v 158.486 209.181 341.318
v 158.738 208.608 341.603
v 157.961 210.214 341.592
v 154.462 213.321 341.615
v 155.65 215.652 341.498
v 152.975 216.551 341.64
v 155.75 216.4 341.713
v 152.884 217.972 342.286
v 156.014 216.804 341.296
v 156.308 217.233 341.947
v 157.744 216.949 343.113
v 160.311 220.866 345.968
v 152.077 222.414 341.99
v 156.399 217.677 343.216
v 151.841 222.604 341.393
v 156.938 222.594 342.987
v 152.119 223.157 341.227
v 152.34 223.33 340.985
v 170.727 194.585 344.854
v 175.851 192.974 343.019
v 177.278 193.436 342.488
v 177.317 192.943 341.589
v 174.431 193.507 344.802
v 176.077 193.36 344.199
v 176.819 193.901 344.211
v 176.245 193.885 345.303
v 177.784 193.379 341.491
v 167.431 194.639 343.124
v 165.934 195.52 342.989
v 168.212 196.06 345.235
v 176.644 195.086 345.187
v 165.012 196.871 343.1
v 166.184 196.462 343.661
v 175.339 197.336 347.851
v 163.672 197.852 342.813
v 167.315 196.937 344.988
v 162.687 199.227 342.777
v 164.106 198.251 343.077
v 165.495 197.405 343.299
v 166.242 197.259 343.652
v 166.857 197.322 344.31
v 163.485 198.416 342.92
v 165.884 198.141 342.867
v 166.682 198.364 343.496
v 161.841 200.714 342.821
v 163.347 199.035 342.977
v 163.974 198.851 342.971
v 166.712 198.963 344.533
v 166.61 200.03 343.11
v 163.206 199.654 342.874
v 163.783 199.401 342.815
v 164.508 199.286 342.378
v 161.114 201.562 342.78
v 161.609 201.981 342.706
v 160.327 202.415 342.698
v 160.97 202.199 342.856
v 158.983 203.53 342.142
v 159.533 203.966 342.806
v 160.202 203.081 342.818
v 160.828 202.828 342.788
v 161.371 202.568 342.636
v 159.008 204.232 342.64
v 159.827 204.962 342.713
v 161.344 203.23 342.136
v 158.17 205.214 342.19
v 158.715 205.544 342.809
v 158.236 205.856 342.628
v 159.316 205.257 342.839
v 159.025 206.55 342.689
v 159.859 205.594 342.316
v 157.186 209.092 342.253
v 157.875 207.903 342.576
v 158.544 206.867 342.758
v 158.248 208.211 342.522
v 159.06 207.185 342.279
v 166.274 210.313 348.581
v 157.775 208.606 342.502
v 156.402 210.684 342.226
v 157.222 209.659 342.472
v 157.678 209.298 342.447
v 158.281 208.833 342.175
v 157.046 210.228 342.438
v 157.513 209.873 342.441
v 155.819 211.474 342.143
v 156.417 211.244 342.512
v 156.901 210.891 342.443
v 157.515 210.444 342.147
v 155.786 212.104 342.502
v 156.269 211.777 342.539
v 156.727 211.449 342.481
v 164.586 212.902 348.783
v 154.933 213.105 342.242
v 155.56 212.687 342.548
v 155.914 212.981 342.53
v 156.731 212.009 342.191
v 154.162 214.718 342.299
v 154.96 213.7 342.564
v 155.438 213.338 342.592
v 154.719 214.976 342.69
v 155.937 213.581 342.227
v 154.245 215.356 342.678
v 155.307 215.248 342.371
v 153.984 217.49 343.34
v 154.676 216.53 343.076
v 155.34 216.262 342.527
v 155.257 217.154 343.192
v 155.865 217.063 342.523
v 161.871 217.977 346.495
v 152.698 220.99 342.879
v 155.579 218.412 344.041
v 153.915 218.212 343.477
v 155.764 217.798 343.526
v 153.866 218.963 343.575
v 154.481 218.767 343.856
v 155.079 218.609 344.024
v 156.134 218.439 344.34
v 156.158 219.025 345.125
v 155.615 219.178 344.601
v 155.155 219.986 344.531
v 155.648 220.619 345.319
v 154.526 221.152 343.867
v 153.177 221.421 343.215
v 155.17 220.936 344.486
v 152.529 222.22 342.56
v 153.117 222.068 342.971
v 154.277 222.41 342.896
v 155.346 221.867 343.877
v 155.877 221.509 345.279
v 152.085 222.873 341.665
v 152.478 222.772 342.169
v 153.041 222.66 342.516
v 156.361 222.242 344.479
v 155.965 222.547 342.816
v 157.533 222.504 345.59
v 152.417 223.159 341.594
v 175.487 193.645 345.352
v 174.969 193.571 345.151
v 171.749 195.464 348.058
v 167.853 196.687 345.598
v 167.162 197.655 345.088
v 168.023 197.586 347.21
v 159.554 213.686 347.88
v 160.2 221.148 347.098
v 157.228 218.742 347.878
v 157.369 220.001 349.081
v 156.587 221.741 347.418
v 156.92 222.378 345.88
v 159.551 221.671 345.347
v 175.772 194.381 346.267
v 175.841 193.934 345.715
v 174.553 194.392 346.695
v 175.834 195.452 346.76
v 173.509 194.982 348.036
v 175.094 194.955 347.398
v 172.028 195.698 349.211
v 175.264 195.456 347.991
v 169.276 198.105 351.447
v 174.868 197.901 350.062
v 167.234 201.49 351.124
v 164.809 204.261 348.394
v 167.268 207.579 350.66
v 170.925 202.578 351.143
v 160.186 221.087 347.904
v 159.51 221.745 346.251
v 159.979 221.359 347.714
v 156.703 222.117 346.883
v 157.034 222.404 346.893
v 157.011 222.298 347.42
v 157.252 222.432 347.321
v 158.481 222.213 346.745
v 159.183 221.849 347.159
v 159.638 221.555 347.815
v 158.06 222.283 347.467
v 172.684 196.024 350.93
v 173.239 196.057 351.388
v 174.633 196.187 350.955
v 174.988 196.445 350.388
v 165.225 205.046 350.49
v 165.694 204.274 350.542
v 163.14 209.97 350.209
v 165.417 209.105 350.695
v 161.141 213.621 350.323
v 164.14 212.844 349.653
v 161.686 215.327 350.266
v 160.627 217.488 350.005
v 161.099 217.899 349.068
v 160.25 217.833 350.16
v 159.874 220.761 349.034
v 159.278 220.109 350.057
v 158.633 219.607 350.209
v 157.314 221.273 348.732
v 158.703 220.671 349.955
v 159.329 221.008 349.264
v 159.109 220.583 349.886
v 158.851 220.953 349.692
v 157.309 221.842 348.322
v 156.917 222.005 347.758
v 157.292 222.239 347.82
v 157.769 222.109 348.076
v 170.088 197.544 351.67
v 173.914 199.105 351.308
v 174.899 197.455 350.743
v 168.634 199.004 351.473
v 172.618 200.606 352.49
v 169.784 203.17 352.28
v 170.236 202.632 352.952
v 166.239 204.11 351.209
v 167.466 203.248 352.276
v 167.237 202.088 351.583
v 165.628 206.064 351.412
v 166.374 204.751 351.717
v 167.174 206.782 351.824
v 166.31 206.563 351.951
v 166.702 205.69 352.133
v 166.782 205.046 352.13
v 165.13 207.133 351.028
v 166.622 206.223 352.105
v 165.029 207.944 350.935
v 165.816 207.567 351.318
v 164.83 208.799 350.815
v 166.43 207.507 351.529
v 166.447 208.033 350.898
v 167.108 207.242 351.491
v 163.842 211.603 350.527
v 163.34 211.217 350.595
v 162.752 211.909 350.547
v 163.38 211.897 350.629
v 162.432 212.763 350.575
v 163.1 212.414 350.602
v 161.805 213.494 350.554
v 162.429 213.333 350.61
v 163.058 213.157 350.426
v 161.158 214.246 350.511
v 161.761 214.087 350.609
v 162.367 213.928 350.493
v 161.121 214.833 350.562
v 161.702 214.68 350.503
v 159.922 216.601 350.359
v 159.712 217.954 350.317
v 173.659 196.338 351.894
v 174.216 196.234 351.504
v 172.314 196.98 352.356
v 173.061 197.024 352.614
v 173.583 196.834 352.421
v 174.147 196.712 352.035
v 174.635 196.605 351.357
v 170.265 198.333 353.167
v 172.106 197.674 353.036
v 172.877 197.532 352.903
v 173.543 197.391 352.667
v 174.027 197.181 352.333
v 174.548 197.208 351.634
v 171.932 198.388 353.709
v 172.737 198.181 353.208
v 173.435 198.018 352.728
v 171.101 199.288 355.147
v 171.531 199.297 355.255
v 172.41 199.409 354.176
v 172.702 198.917 353.396
v 173.265 198.592 352.794
v 170.868 199.695 355.441
v 169.601 199.7 353.789
v 167.598 202.527 352.254
v 170.455 199.961 355.191
v 168.843 201.543 353.25
v 172.611 200.64 353.796
v 169.915 201.008 354.646
v 171.756 202.018 354.961
v 168.78 202.234 353.106
v 169.426 202.084 353.453
v 170.031 201.902 354.324
v 171.515 202.327 355.255
v 169.27 202.849 352.875
v 170.49 202.612 354.426
v 170.747 202.726 353.699
v 171.108 202.788 354.036
v 167.347 204.729 352.341
v 170.731 202.957 355.344
v 170.808 203.097 354.825
v 170.956 203.035 354.591
v 168.059 204.321 352.441
v 167.173 205.363 352.29
v 166.733 206.669 352.029
v 166.763 207.166 351.776
v 171.781 199.556 355.426
v 172.281 200.107 355.125
v 172.482 200.384 354.742
v 172.571 200.603 354.375
v 172.429 200.66 354.873
v 170.492 202.144 355.236
v 172.216 200.918 355.129
v 170.944 203.075 355.02
v 171.106 202.894 355.219
v 170.787 203.086 355.149
v 171.457 200.222 356.007
v 170.941 200.268 355.797
v 170.828 201.035 355.875
v 171.336 200.738 356.071
v 171.745 200.493 355.959
v 170.81 202.343 355.693
v 171.104 202 355.892
v 170.822 202.747 355.568
v 171.148 202.52 355.571
v 170.907 202.948 355.392

f 1 2 3
f 4 1 3
f 5 1 4
f 6 5 4
f 7 1 5
f 2 1 7
f 8 2 7
f 9 2 8
f 10 2 9
f 5 6 11
f 11 12 5
f 5 12 7
f 8 7 13
f 13 7 12
f 9 8 14
f 14 8 13
f 10 9 15
f 15 9 14
f 16 10 15
f 17 10 18
f 18 10 16
f 19 13 12
f 13 19 14
f 15 14 20
f 20 14 19
f 16 15 21
f 21 15 20
f 22 16 21
f 18 16 23
f 23 16 22
f 17 18 24
f 24 25 17
f 25 26 17
f 21 20 19
f 22 21 27
f 27 21 19
f 23 22 28
f 28 22 27
f 18 23 29
f 29 23 28
f 24 18 30
f 30 18 29
f 25 24 31
f 31 24 30
f 32 33 26
f 32 26 31
f 31 26 25
f 17 26 33
f 19 34 27
f 28 27 35
f 35 27 34
f 29 28 35
f 30 29 36
f 36 29 35
f 37 31 36
f 36 31 30
f 32 31 37
f 36 35 34
f 4 3 38
f 39 11 6
f 10 17 2
f 11 39 40
f 12 11 40
f 41 19 12
f 34 19 41
f 37 42 32
f 36 34 41
f 37 36 41
f 41 42 37
f 3 43 38
f 44 45 38
f 4 45 6
f 38 45 4
f 45 44 39
f 6 45 39
f 17 46 47
f 17 47 2
f 12 40 41
f 33 32 48
f 33 46 17
f 33 48 46
f 48 49 46
f 49 47 46
f 32 42 48
f 49 48 50
f 42 41 50
f 42 50 48
f 2 51 3
f 3 51 43
f 38 52 44
f 53 39 44
f 53 40 39
f 54 2 47
f 47 49 54
f 55 50 41
f 43 56 57
f 38 43 57
f 43 51 56
f 38 57 52
f 44 52 53
f 58 2 54
f 53 59 60
f 40 53 60
f 49 61 54
f 62 41 40
f 49 50 61
f 41 62 55
f 50 55 63
f 50 63 64
f 64 61 50
f 56 65 57
f 57 65 52
f 51 65 56
f 51 66 65
f 66 52 65
f 67 51 68
f 67 66 51
f 69 68 51
f 70 69 51
f 71 72 73
f 73 72 74
f 73 59 67
f 73 74 59
f 67 59 66
f 53 52 59
f 66 59 52
f 2 70 51
f 58 70 2
f 58 75 70
f 58 76 75
f 76 77 78
f 75 76 78
f 72 79 80
f 72 80 81
f 74 72 82
f 82 72 81
f 59 74 60
f 74 82 60
f 60 83 40
f 54 76 58
f 54 61 76
f 61 84 76
f 77 76 84
f 85 86 80
f 80 86 87
f 81 80 88
f 88 80 87
f 82 81 89
f 89 81 88
f 60 82 90
f 90 82 89
f 83 60 91
f 91 60 90
f 83 62 40
f 92 93 94
f 85 93 92
f 85 92 95
f 86 85 96
f 96 85 95
f 87 86 97
f 97 86 96
f 88 87 98
f 98 87 97
f 89 88 99
f 99 88 98
f 90 89 91
f 91 89 99
f 62 83 91
f 62 100 55
f 64 101 61
f 84 61 101
f 102 84 101
f 103 77 84
f 102 103 84
f 104 105 106
f 94 105 104
f 94 104 92
f 95 92 107
f 107 92 104
f 96 95 108
f 108 95 107
f 97 96 109
f 109 96 108
f 98 97 110
f 110 97 109
f 111 98 110
f 99 98 112
f 112 98 111
f 91 99 112
f 113 91 112
f 91 113 62
f 55 100 63
f 64 63 101
f 114 104 106
f 115 104 114
f 107 104 116
f 116 104 115
f 108 107 117
f 117 107 116
f 109 108 117
f 110 109 111
f 111 109 117
f 118 112 111
f 113 112 118
f 102 101 63
f 119 106 120
f 106 119 114
f 114 119 121
f 115 114 122
f 122 114 121
f 116 115 123
f 123 115 122
f 117 116 124
f 124 116 123
f 125 117 124
f 125 111 117
f 100 126 127
f 119 120 128
f 121 119 129
f 129 119 128
f 122 121 130
f 130 121 129
f 123 122 131
f 131 122 130
f 124 123 125
f 125 123 131
f 63 100 127
f 128 120 132
f 129 128 133
f 130 129 134
f 134 129 133
f 131 130 125
f 125 130 134
f 135 136 137
f 120 136 135
f 120 135 132
f 128 132 138
f 133 128 139
f 139 128 138
f 134 133 140
f 140 133 139
f 125 134 140
f 138 132 141
f 139 138 142
f 142 138 141
f 140 139 142
f 140 143 125
f 144 135 137
f 145 144 137
f 132 135 146
f 146 135 144
f 141 132 147
f 147 132 146
f 142 141 148
f 148 141 147
f 140 142 149
f 149 142 148
f 143 140 149
f 144 145 150
f 146 144 150
f 151 146 150
f 151 152 148
f 151 148 146
f 146 148 147
f 149 148 153
f 154 155 156
f 157 158 159
f 154 158 157
f 155 154 160
f 160 154 157
f 159 161 157
f 159 162 161
f 163 161 162
f 157 161 164
f 164 161 163
f 160 157 165
f 165 157 164
f 163 162 166
f 164 163 166
f 167 160 165
f 162 168 169
f 162 169 170
f 171 162 170
f 166 162 172
f 172 162 171
f 164 166 173
f 173 166 172
f 174 167 165
f 174 165 173
f 173 165 164
f 172 171 175
f 173 172 175
f 175 174 173
f 169 168 176
f 171 170 177
f 175 171 178
f 178 171 177
f 174 175 178
f 168 179 176
f 169 176 180
f 180 176 179
f 170 169 181
f 181 169 180
f 177 170 181
f 177 174 178
f 182 179 168
f 179 182 183
f 184 179 183
f 180 179 184
f 181 180 185
f 185 180 184
f 177 181 186
f 186 181 185
f 187 188 177
f 187 177 186
f 174 177 188
f 187 186 185
f 182 168 189
f 183 182 190
f 191 183 190
f 184 183 191
f 192 184 191
f 192 185 184
f 187 185 192
f 189 193 182
f 182 193 194
f 190 182 194
f 195 190 194
f 191 190 196
f 196 190 195
f 192 191 196
f 189 197 193
f 194 193 197
f 196 195 198
f 198 192 196
f 189 199 197
f 197 199 200
f 201 197 200
f 194 197 202
f 202 197 201
f 195 194 203
f 203 194 202
f 203 198 195
f 200 199 204
f 204 199 205
f 201 200 206
f 206 200 204
f 202 201 203
f 203 201 206
f 207 208 209
f 207 209 199
f 199 209 210
f 205 199 211
f 211 199 210
f 204 205 212
f 212 205 211
f 206 204 212
f 203 206 213
f 213 206 212
f 214 203 213
f 198 203 214
f 208 215 209
f 210 209 216
f 216 209 215
f 211 210 217
f 217 210 216
f 212 211 218
f 218 211 217
f 219 214 213
f 219 213 212
f 220 221 222
f 208 221 220
f 208 220 215
f 215 220 223
f 224 215 223
f 216 215 225
f 225 215 224
f 217 216 226
f 226 216 225
f 227 219 218
f 227 218 226
f 226 218 217
f 212 218 219
f 220 222 223
f 224 223 228
f 228 223 222
f 225 224 229
f 229 224 228
f 229 227 226
f 229 226 225
f 228 222 230
f 229 228 230
f 67 68 73
f 73 68 71
f 75 78 70
f 71 79 72
f 78 77 231
f 231 77 232
f 80 233 85
f 233 80 79
f 93 233 234
f 94 93 234
f 233 93 85
f 77 103 232
f 234 105 94
f 102 235 103
f 100 62 113
f 100 113 126
f 127 126 236
f 102 63 237
f 125 118 111
f 63 127 238
f 137 136 239
f 239 240 137
f 137 240 145
f 145 240 241
f 150 145 241
f 151 150 242
f 150 241 242
f 242 152 151
f 243 152 242
f 153 148 244
f 149 153 244
f 244 143 149
f 152 243 245
f 245 148 152
f 246 156 155
f 159 158 247
f 247 158 154
f 246 155 248
f 155 160 248
f 248 160 249
f 162 159 168
f 160 167 249
f 167 174 250
f 187 250 188
f 250 174 188
f 192 251 187
f 198 251 192
f 199 189 207
f 227 252 219
f 222 221 253
f 230 222 253
f 227 229 252
f 71 68 254
f 68 69 254
f 255 70 78
f 79 71 254
f 70 255 256
f 257 255 78
f 258 257 78
f 258 78 231
f 258 231 232
f 233 79 254
f 258 232 259
f 69 233 254
f 259 232 260
f 234 261 105
f 234 233 261
f 69 262 233
f 103 263 260
f 235 263 103
f 260 232 103
f 261 264 106
f 105 261 106
f 233 264 261
f 265 113 118
f 113 265 266
f 266 126 113
f 125 267 118
f 268 265 267
f 267 265 118
f 236 126 269
f 236 238 127
f 269 238 236
f 235 102 237
f 235 237 263
f 263 237 270
f 106 271 120
f 271 106 264
f 233 262 264
f 266 272 126
f 269 126 272
f 238 269 273
f 238 274 63
f 273 274 238
f 63 274 270
f 63 270 237
f 271 275 136
f 120 271 136
f 264 275 271
f 267 125 143
f 276 272 266
f 269 272 276
f 277 269 276
f 273 269 277
f 270 274 278
f 136 275 239
f 264 279 275
f 280 264 262
f 267 143 281
f 282 276 283
f 277 276 282
f 273 277 274
f 239 275 240
f 279 240 275
f 264 284 279
f 285 264 280
f 285 284 264
f 286 277 282
f 286 274 277
f 278 274 286
f 279 287 240
f 282 283 288
f 288 283 289
f 286 282 288
f 242 241 240
f 287 242 240
f 284 287 279
f 284 243 287
f 284 290 243
f 242 287 243
f 244 148 291
f 288 289 292
f 293 286 292
f 292 286 288
f 294 245 243
f 294 243 290
f 245 291 148
f 245 294 291
f 294 295 291
f 244 291 295
f 143 244 296
f 296 244 295
f 297 289 283
f 292 289 297
f 290 298 299
f 290 299 294
f 294 299 300
f 295 294 300
f 301 143 296
f 298 302 299
f 299 302 303
f 300 299 303
f 304 297 283
f 305 304 283
f 306 297 304
f 292 297 307
f 307 297 306
f 307 293 292
f 308 309 303
f 308 303 310
f 310 303 302
f 300 303 309
f 311 300 309
f 295 300 311
f 296 295 311
f 305 312 313
f 306 304 307
f 314 315 316
f 302 317 310
f 315 314 318
f 308 310 317
f 313 319 305
f 305 319 320
f 304 305 321
f 321 305 320
f 307 304 321
f 314 316 322
f 318 314 322
f 313 323 319
f 320 319 324
f 324 319 323
f 321 320 324
f 325 323 313
f 247 325 313
f 326 323 325
f 324 323 326
f 321 324 327
f 327 293 307
f 327 307 321
f 325 247 328
f 326 325 329
f 329 325 328
f 324 326 330
f 330 326 329
f 327 324 330
f 154 328 247
f 156 328 154
f 329 328 156
f 246 329 156
f 246 330 329
f 246 248 249
f 331 330 249
f 249 330 246
f 327 330 331
f 159 247 168
f 167 250 249
f 168 247 332
f 250 187 333
f 334 332 335
f 168 332 334
f 168 334 189
f 333 187 251
f 333 251 198
f 336 337 338
f 336 338 334
f 337 207 338
f 334 338 189
f 339 340 207
f 189 338 207
f 341 340 342
f 339 342 340
f 219 198 214
f 342 343 344
f 342 344 341
f 207 340 208
f 345 344 343
f 346 345 343
f 341 344 347
f 347 344 345
f 340 341 348
f 348 341 347
f 221 340 348
f 208 340 221
f 349 219 350
f 219 252 350
f 346 351 345
f 345 351 347
f 348 347 351
f 221 348 253
f 348 351 253
f 230 253 350
f 253 351 350
f 350 229 230
f 252 229 350
f 257 352 255
f 255 352 256
f 257 258 352
f 70 353 69
f 70 354 353
f 258 259 355
f 356 266 265
f 262 357 280
f 268 356 265
f 268 267 356
f 267 358 356
f 266 356 358
f 263 270 359
f 359 260 263
f 358 267 360
f 270 278 359
f 360 267 281
f 361 360 281
f 358 360 362
f 362 360 361
f 363 358 362
f 266 358 363
f 364 365 361
f 364 361 281
f 362 361 365
f 365 366 367
f 365 367 362
f 362 367 363
f 266 363 368
f 368 363 367
f 276 266 283
f 266 368 283
f 143 364 281
f 143 369 364
f 370 367 366
f 368 367 371
f 283 368 371
f 372 286 293
f 284 285 373
f 290 284 373
f 371 367 370
f 374 369 143
f 373 298 290
f 143 301 374
f 296 374 301
f 375 371 370
f 283 371 312
f 283 312 305
f 298 376 302
f 309 308 377
f 377 311 309
f 312 371 375
f 315 376 316
f 315 378 376
f 315 318 378
f 317 302 378
f 376 378 302
f 317 377 308
f 317 378 377
f 378 379 377
f 311 377 380
f 380 377 379
f 374 296 380
f 380 296 311
f 381 382 374
f 380 381 374
f 312 375 313
f 383 322 316
f 383 316 384
f 322 378 318
f 322 383 378
f 383 385 378
f 379 378 385
f 386 383 384
f 385 383 386
f 375 247 313
f 387 386 384
f 385 386 388
f 379 385 389
f 389 385 388
f 380 379 389
f 293 327 390
f 391 386 387
f 388 386 391
f 389 381 380
f 392 387 393
f 387 392 391
f 391 392 394
f 388 391 394
f 395 381 389
f 390 327 331
f 396 392 393
f 394 392 397
f 397 392 396
f 388 394 398
f 398 394 397
f 389 388 399
f 399 388 398
f 399 395 389
f 247 375 332
f 400 401 402
f 393 401 400
f 393 400 396
f 396 400 403
f 397 396 404
f 404 396 403
f 398 397 399
f 399 397 404
f 390 331 249
f 405 406 407
f 402 406 405
f 402 405 400
f 403 400 408
f 408 400 405
f 404 403 409
f 409 403 408
f 399 404 410
f 410 404 409
f 410 395 399
f 411 405 407
f 408 405 412
f 409 408 413
f 413 408 412
f 413 414 410
f 413 410 409
f 395 410 414
f 407 415 416
f 407 416 411
f 405 411 417
f 417 411 416
f 412 405 417
f 249 250 333
f 390 249 333
f 418 416 415
f 417 416 419
f 412 417 420
f 420 417 419
f 421 412 420
f 413 412 421
f 415 422 423
f 415 423 418
f 418 423 424
f 416 418 425
f 425 418 424
f 419 416 425
f 419 421 420
f 424 423 426
f 419 425 427
f 428 419 427
f 421 419 428
f 423 429 430
f 423 430 426
f 426 430 431
f 424 426 432
f 432 426 431
f 425 424 433
f 433 424 432
f 427 425 434
f 434 425 433
f 435 428 427
f 434 435 427
f 431 430 436
f 436 430 437
f 432 431 436
f 433 432 438
f 434 433 439
f 439 433 438
f 440 435 434
f 440 434 441
f 441 434 439
f 440 441 442
f 432 436 339
f 438 432 339
f 336 334 443
f 336 443 441
f 336 441 439
f 442 441 443
f 335 443 334
f 444 437 430
f 436 437 445
f 339 436 445
f 337 439 438
f 336 439 337
f 445 437 444
f 438 339 207
f 337 438 207
f 445 444 342
f 339 445 342
f 342 444 343
f 343 444 446
f 343 446 346
f 446 447 346
f 350 448 349
f 346 447 449
f 449 351 346
f 450 351 449
f 351 450 448
f 350 351 448
f 352 258 355
f 354 451 353
f 354 70 256
f 262 69 353
f 259 260 355
f 355 260 452
f 260 453 454
f 454 452 260
f 453 260 359
f 455 453 359
f 278 456 359
f 456 455 359
f 278 372 456
f 365 457 458
f 364 457 365
f 365 458 459
f 459 366 365
f 460 366 459
f 372 278 286
f 280 461 285
f 364 462 457
f 460 370 366
f 369 463 462
f 462 364 369
f 382 369 374
f 298 373 376
f 316 376 384
f 376 464 384
f 382 381 465
f 384 464 387
f 464 466 387
f 393 387 466
f 381 467 468
f 395 467 381
f 468 465 381
f 467 395 469
f 402 401 466
f 466 401 393
f 395 414 469
f 466 406 402
f 406 470 407
f 470 415 407
f 421 471 414
f 414 413 421
f 422 472 423
f 471 421 428
f 472 429 423
f 428 435 471
f 471 435 473
f 429 474 430
f 435 475 473
f 440 475 435
f 475 440 442
f 476 475 442
f 477 443 335
f 198 478 333
f 474 479 430
f 442 480 476
f 443 480 442
f 480 443 477
f 430 479 444
f 478 198 219
f 446 481 447
f 448 482 349
f 447 481 483
f 449 447 483
f 483 450 449
f 450 483 484
f 450 484 448
f 354 485 451
f 354 256 486
f 486 256 487
f 256 352 488
f 487 256 488
f 485 354 486
f 489 486 490
f 490 491 492
f 490 486 491
f 486 487 491
f 352 493 488
f 493 487 488
f 352 355 493
f 262 353 494
f 485 353 451
f 493 454 487
f 454 491 487
f 355 452 454
f 493 355 454
f 494 495 262
f 353 496 494
f 489 485 486
f 497 491 454
f 357 262 498
f 495 498 262
f 494 499 495
f 496 499 494
f 455 500 497
f 497 454 455
f 454 453 455
f 501 357 498
f 495 499 498
f 502 499 496
f 357 503 280
f 357 501 503
f 498 504 501
f 505 504 498
f 499 505 498
f 506 505 499
f 507 499 502
f 507 506 499
f 500 455 456
f 501 508 503
f 504 508 501
f 506 509 505
f 509 504 505
f 510 506 507
f 509 506 510
f 456 293 500
f 280 511 461
f 503 511 280
f 508 512 503
f 504 513 508
f 513 512 508
f 509 513 504
f 458 457 509
f 458 510 459
f 458 509 510
f 459 510 460
f 514 515 510
f 460 510 515
f 503 516 511
f 512 516 503
f 513 517 512
f 517 516 512
f 518 517 513
f 457 462 518
f 457 518 509
f 509 518 513
f 456 372 293
f 516 519 511
f 517 518 516
f 462 463 518
f 461 519 285
f 511 519 461
f 516 520 519
f 369 520 518
f 518 520 516
f 463 369 518
f 460 515 370
f 521 285 519
f 522 521 519
f 520 522 519
f 369 382 520
f 285 523 373
f 523 285 524
f 521 525 285
f 525 524 285
f 522 526 521
f 526 525 521
f 520 527 522
f 527 526 522
f 382 527 520
f 375 515 514
f 373 523 528
f 524 528 523
f 525 529 524
f 526 529 525
f 527 530 526
f 382 530 527
f 515 375 370
f 373 531 376
f 528 531 373
f 526 530 529
f 528 532 531
f 532 533 531
f 524 534 528
f 534 532 528
f 529 534 524
f 530 382 529
f 534 535 532
f 529 536 534
f 536 535 534
f 382 536 529
f 531 537 464
f 376 531 464
f 533 538 531
f 538 537 531
f 532 539 533
f 539 538 533
f 535 539 532
f 536 465 535
f 536 382 465
f 464 537 466
f 539 540 538
f 535 541 539
f 541 540 539
f 465 541 535
f 293 390 542
f 538 543 537
f 540 543 538
f 541 465 540
f 466 537 544
f 544 537 545
f 543 546 537
f 546 545 537
f 540 547 543
f 547 546 543
f 468 467 547
f 468 547 540
f 465 468 540
f 545 548 544
f 546 549 545
f 549 548 545
f 467 469 546
f 547 467 546
f 466 544 550
f 550 544 551
f 548 552 544
f 552 551 544
f 549 553 548
f 553 552 548
f 469 414 553
f 469 553 546
f 546 553 549
f 466 550 554
f 551 555 550
f 555 554 550
f 552 556 551
f 556 555 551
f 553 414 552
f 557 542 390
f 466 558 470
f 406 466 470
f 554 559 466
f 559 558 466
f 555 560 554
f 560 559 554
f 556 561 555
f 561 560 555
f 414 561 552
f 552 561 556
f 470 562 415
f 470 558 562
f 562 558 563
f 559 564 558
f 564 563 558
f 560 564 559
f 415 562 422
f 564 565 563
f 560 566 564
f 566 565 564
f 414 471 566
f 414 566 561
f 561 566 560
f 375 477 332
f 390 333 478
f 422 562 567
f 563 565 562
f 565 567 562
f 422 474 472
f 567 474 422
f 471 568 566
f 566 568 565
f 335 332 477
f 472 474 429
f 567 569 474
f 565 570 567
f 570 569 567
f 568 571 565
f 571 570 565
f 471 473 571
f 568 471 571
f 571 572 570
f 473 475 573
f 473 573 571
f 571 573 572
f 475 476 573
f 390 478 574
f 474 575 479
f 569 575 474
f 570 576 569
f 576 577 569
f 572 576 570
f 573 578 572
f 578 576 572
f 476 480 573
f 573 480 578
f 577 579 569
f 576 580 577
f 580 579 577
f 581 580 576
f 480 582 578
f 582 576 578
f 583 480 477
f 582 480 583
f 579 575 569
f 580 581 579
f 576 584 581
f 583 584 582
f 584 576 582
f 581 585 579
f 585 575 579
f 586 585 584
f 585 581 584
f 583 586 584
f 478 219 349
f 444 479 446
f 585 587 575
f 587 588 575
f 589 587 585
f 589 585 586
f 446 479 481
f 575 590 479
f 588 591 575
f 591 590 575
f 587 592 588
f 592 591 588
f 589 593 587
f 593 592 587
f 594 589 586
f 593 589 594
f 479 595 481
f 590 596 479
f 596 595 479
f 591 597 590
f 597 596 590
f 592 597 591
f 598 593 594
f 598 599 593
f 599 592 593
f 599 482 448
f 599 598 482
f 598 600 482
f 482 600 349
f 481 595 483
f 483 595 601
f 601 595 596
f 597 601 596
f 448 597 592
f 599 448 592
f 483 601 484
f 448 484 601
f 597 448 601
f 490 602 603
f 489 490 603
f 490 492 602
f 489 604 485
f 604 489 603
f 353 485 496
f 502 496 605
f 502 605 606
f 507 502 606
f 507 606 510
f 606 607 510
f 607 514 510
f 514 608 375
f 477 375 608
f 609 574 478
f 610 586 583
f 586 611 594
f 611 612 594
f 594 612 613
f 598 594 613
f 600 598 613
f 600 614 349
f 602 615 603
f 602 492 616
f 615 602 616
f 603 615 617
f 492 491 618
f 492 618 616
f 616 618 615
f 491 497 618
f 604 603 617
f 604 617 619
f 615 620 617
f 620 619 617
f 618 620 615
f 621 604 619
f 620 622 619
f 622 620 618
f 607 605 496
f 623 485 621
f 604 621 485
f 605 607 606
f 623 607 496
f 485 623 496
f 497 500 618
f 293 624 500
f 623 625 607
f 625 514 607
f 626 608 514
f 293 627 628
f 293 542 627
f 390 574 557
f 610 477 608
f 610 583 477
f 629 574 609
f 610 611 586
f 478 614 630
f 349 614 478
f 609 478 630
f 631 629 609
f 613 612 632
f 633 632 634
f 633 613 632
f 613 635 600
f 633 635 613
f 635 636 600
f 614 600 636
f 614 636 637
f 614 637 630
f 609 630 637
f 638 609 637
f 631 609 638
f 633 634 635
f 639 636 635
f 619 640 621
f 622 641 619
f 619 641 640
f 622 642 641
f 643 622 618
f 623 621 640
f 618 500 643
f 624 643 500
f 293 628 624
f 514 625 626
f 608 626 644
f 644 626 645
f 646 608 644
f 542 557 647
f 648 608 646
f 557 574 649
f 648 610 608
f 649 574 650
f 648 611 610
f 574 651 650
f 651 652 653
f 574 652 651
f 654 655 653
f 652 654 653
f 574 629 654
f 652 574 654
f 656 612 611
f 656 657 612
f 657 656 658
f 659 660 655
f 661 660 659
f 654 659 655
f 657 662 612
f 662 663 612
f 658 661 657
f 659 638 661
f 654 629 659
f 629 638 659
f 612 663 632
f 634 632 663
f 634 663 664
f 664 663 662
f 657 665 662
f 665 664 662
f 661 665 657
f 637 636 665
f 637 665 638
f 638 665 661
f 631 638 629
f 634 664 635
f 665 635 664
f 639 635 665
f 636 639 665
f 642 622 643
f 640 666 623
f 624 667 668
f 668 643 624
f 623 669 625
f 624 670 667
f 628 670 624
f 671 672 628
f 625 673 626
f 674 625 675
f 673 625 674
f 645 676 644
f 645 626 673
f 645 673 676
f 676 673 677
f 677 673 674
f 628 678 671
f 677 679 676
f 680 677 681
f 679 677 680
f 676 682 644
f 680 683 679
f 628 627 678
f 682 684 644
f 676 685 682
f 685 684 682
f 685 676 679
f 684 686 646
f 644 684 646
f 687 685 679
f 687 688 685
f 688 684 685
f 689 688 687
f 627 688 689
f 684 647 686
f 647 690 686
f 688 647 684
f 627 542 647
f 688 627 647
f 646 686 691
f 691 686 690
f 646 691 692
f 692 691 693
f 690 693 691
f 647 557 690
f 692 694 646
f 693 695 692
f 695 694 692
f 649 693 690
f 557 649 690
f 648 646 694
f 648 694 696
f 696 694 697
f 695 698 694
f 698 697 694
f 649 698 693
f 693 698 695
f 648 696 699
f 699 696 700
f 697 701 696
f 701 700 696
f 650 701 698
f 698 701 697
f 649 650 698
f 648 699 702
f 700 703 699
f 703 702 699
f 650 703 701
f 701 703 700
f 702 704 648
f 650 702 703
f 648 704 611
f 702 650 704
f 651 705 650
f 650 705 704
f 611 704 656
f 656 704 705
f 651 653 705
f 653 655 705
f 705 655 656
f 655 660 658
f 655 658 656
f 660 661 658
f 641 706 640
f 641 642 707
f 706 641 707
f 666 640 706
f 666 706 708
f 708 706 709
f 710 709 706
f 707 711 706
f 711 710 706
f 642 712 707
f 712 711 707
f 643 668 712
f 642 643 712
f 713 666 714
f 708 714 666
f 709 715 708
f 715 714 708
f 710 716 709
f 716 715 709
f 711 717 710
f 717 716 710
f 712 718 711
f 718 717 711
f 712 668 718
f 713 669 666
f 719 713 714
f 715 720 714
f 720 719 714
f 716 721 715
f 721 720 715
f 717 721 716
f 668 667 717
f 668 717 718
f 623 666 669
f 713 722 669
f 722 713 723
f 719 723 713
f 724 723 719
f 724 719 725
f 719 720 725
f 721 726 720
f 726 725 720
f 717 667 721
f 667 726 721
f 727 728 722
f 728 669 722
f 670 724 725
f 726 667 725
f 667 670 725
f 728 729 669
f 730 728 727
f 731 728 730
f 732 724 670
f 669 729 625
f 728 731 729
f 733 731 730
f 670 628 734
f 670 734 732
f 625 729 675
f 731 735 729
f 736 735 731
f 737 731 733
f 736 731 737
f 738 734 628
f 729 674 675
f 735 674 729
f 736 739 735
f 740 672 737
f 740 741 672
f 737 672 736
f 671 739 672
f 736 672 739
f 672 741 628
f 741 742 628
f 742 738 628
f 735 743 674
f 740 744 745
f 740 745 741
f 746 742 745
f 745 742 741
f 738 742 746
f 674 743 677
f 735 747 743
f 671 678 747
f 671 747 739
f 739 747 735
f 743 748 681
f 677 743 681
f 747 748 743
f 748 749 680
f 681 748 680
f 678 749 747
f 747 749 748
f 683 749 679
f 683 680 749
f 749 750 679
f 689 750 678
f 678 750 749
f 627 689 678
f 679 750 687
f 689 687 750
f 724 751 723
f 751 724 752
f 724 753 752
f 732 753 724
f 753 732 754
f 755 753 754
f 730 756 733
f 732 734 757
f 755 754 732
f 757 755 732
f 733 756 737
f 737 756 740
f 756 744 740
f 746 758 759
f 759 738 746
f 745 744 760
f 758 746 745
f 760 758 745
f 723 761 722
f 761 723 751
f 727 762 730
f 727 722 761
f 727 761 762
f 762 763 730
f 761 764 762
f 764 763 762
f 751 765 761
f 765 764 761
f 752 753 765
f 752 765 751
f 753 755 765
f 763 766 756
f 730 763 756
f 764 767 763
f 767 766 763
f 765 767 764
f 757 734 765
f 755 757 765
f 765 738 767
f 765 734 738
f 766 768 744
f 756 766 744
f 767 769 766
f 769 768 766
f 738 769 767
f 768 770 744
f 759 758 770
f 759 770 769
f 769 770 768
f 738 759 769
f 744 770 760
f 758 760 770
